word,x,y,z,cluster
AGISI-MI-002,-9.202924,-7.8831005,5.6948586,Noise
AGISI-MI-004,-7.304501,-3.796153,4.6757874,Noise
AGISI-MI-011,-2.1266637,-6.5256667,14.2966385,Noise
AGISI-MI-012,-2.8303165,-4.4653482,14.006908,Noise
AGISI-MI-017,-10.967792,-2.549972,7.5047483,Noise
AGISI-MI-020,-6.9639177,-3.3388724,4.5712104,Noise
AGISI-MI-022,-5.5354705,-4.9806085,3.9706266,Noise
AGISI-MI-027,-4.6069484,-3.833796,7.5425687,Noise
AGISI-MI-028,-5.2979827,-0.38193738,7.0481997,Noise
AGISI-MI-029,-5.6280127,-2.7619514,3.7741148,Cluster1
AGISI-MI-033,-9.491087,-6.582373,7.2243733,Noise
AGISI-MI-043,-4.186412,-3.000897,8.079662,Noise
AGISI-MI-044,-18.132383,-1.1106733,10.87723,Noise
AGISI-MI-049,-4.2021556,-2.114056,3.1173024,Cluster2
AGISI-MI-052,-11.894374,-6.7370014,6.7520165,Noise
AGISI-MI-053,-8.396236,-5.52969,5.1947794,Noise
AGISI-MI-054,-7.3188243,-2.079858,7.3829226,Noise
AGISI-MI-056,-11.605201,-5.598992,7.993147,Noise
AGISI-MI-063,-5.9213395,-2.8538108,3.9656587,Cluster1
AGISI-MI-064,-7.497174,-2.0872066,17.19225,Noise
AGISI-MI-065,-9.51068,-7.262645,9.58445,Noise
AGISI-MI-069,-0.6521331,-3.4898524,16.701422,Noise
AGISI-MI-071,-4.238633,-12.902603,11.127605,Noise
AGISI-MI-081,-4.6832633,-2.4206834,3.6225777,Cluster2
AGISI-MI-086,-8.926758,-5.693043,7.1705017,Noise
AGISI-MI-088,-6.8594065,-16.355793,17.45338,Noise
AGISI-MI-106,-13.171085,-16.365835,11.266197,Noise
AGISI-MI-108,-4.3821564,-2.0929973,9.893932,Noise
AGISI-MI-109,0.1179723,-3.0591223,15.72823,Noise
AGISI-MI-111,-1.6808457,-4.5361805,9.611746,Noise
AGISI-MI-113,-11.662729,-1.1197774,16.388939,Noise
AGISI-MI-117,-7.2335596,-3.6518698,4.7060075,Noise
AGISI-MI-118,-4.2479687,-9.185288,7.5206323,Noise
AGISI-MI-123,-8.92926,-10.956623,8.729298,Noise
AGISI-MI-125,-2.8295474,-4.146258,10.9320135,Noise
AGISI-MI-133,-6.7400002,-3.228215,4.25566,Noise
AGISI-MI-135,-8.836032,-1.8898231,10.29784,Noise
AGISI-MI-142,-10.6917925,-7.445033,9.454348,Noise
AGISI-MI-148,-5.1831827,-2.5804315,3.424387,Cluster1
AGISI-MI-155,-11.314593,-5.260087,6.871293,Noise
AGISI-MI-161,-19.062109,-5.1912956,11.036394,Noise
AGISI-MI-165,-5.411376,-9.282059,8.140691,Noise
AGISI-MI-166,-7.7510014,-9.479468,9.323315,Noise
AGISI-MI-170,-8.740923,-3.4392157,7.534628,Noise
AGISI-MI-175,10.792241,-11.795686,19.957386,Noise
AGISI-MI-177,-7.616365,-3.6124415,5.2572446,Noise
AGISI-MI-180,-13.077129,-8.298124,7.1125536,Noise
AGISI-MI-185,-3.2325623,-5.378189,4.557121,Noise
AGISI-MI-187,-8.097918,-13.168681,8.236902,Noise
AGISI-MI-199,-3.9775336,-12.371354,11.019487,Noise
AGISI-MI-204,-4.9925613,-6.331928,7.8306494,Noise
AGISI-MI-205,-4.4688406,-18.15117,14.776671,Noise
AGISI-MI-206,-4.130261,-3.1632903,9.203207,Noise
AGISI-MI-209,-4.8027368,-0.9224412,20.197626,Noise
AGISI-MI-211,-3.3460011,-9.72236,13.591458,Noise
AGISI-MI-212,-4.6552153,-8.846883,8.8636465,Noise
AGISI-MI-217,-5.8299756,-2.9353464,3.6855545,Cluster1
AGISI-MI-220,-5.662035,-9.619794,10.1484375,Noise
AGISI-MI-221,-1.971821,-5.26445,12.755369,Noise
AGISI-MI-222,-9.105384,-4.662761,5.8329935,Noise
AGISI-MI-230,-9.37772,-5.582249,19.824234,Noise
AGISI-MI-232,-12.296728,-7.8498154,6.7330575,Noise
AGISI-MI-233,-9.467405,-4.5385976,5.5949106,Noise
AGISI-MI-236,-2.9861932,-1.9775774,2.825251,Noise
AGISI-MI-239,-9.26384,-12.895889,14.804895,Noise
AGISI-MI-240,-5.2318745,-5.0862803,4.945177,Noise
AGISI-MI-243,-3.7952826,-6.562031,17.67712,Noise
AGISI-MI-244,-9.453771,-12.422995,10.491805,Noise
AGISI-MI-246,-1.8936217,-6.5547333,9.989458,Noise
AGISI-MI-254,-9.134058,-9.491816,6.790935,Noise
AGISI-MI-256,-3.4083781,-2.4124722,10.688879,Noise
AGISI-MI-258,-4.8422794,-5.0476203,7.0587287,Noise
AGISI-MI-259,-12.820828,2.8373108,17.778723,Noise
AGISI-MI-264,-8.915304,-14.073901,7.4101195,Noise
AGISI-MI-266,-7.0353804,0.47891587,15.704959,Noise
AGISI-MI-275,-5.751768,-8.430415,14.487261,Noise
AGISI-MI-279,-3.8121002,-1.7693353,2.702913,Noise
AGISI-MI-283,-8.979738,-0.7216625,12.799551,Noise
AGISI-MI-284,-5.572893,-2.8057182,3.6496391,Cluster1
AGISI-MI-289,-5.0907063,-12.744103,6.7798753,Noise
AGISI-MI-293,-3.4126892,-3.1301029,6.790556,Noise
AGISI-MI-298,-10.715513,-5.039539,16.025593,Noise
AGISI-MI-308,-6.2636814,-3.0131884,4.4872723,Noise
AGISI-MI-309,-7.0639267,-6.1074653,7.873802,Noise
AGISI-MI-311,-6.827343,-17.104927,14.96329,Noise
AGISI-MI-312,-1.8243464,8.382557,19.694494,Noise
AGISI-MI-316,-5.201559,-2.560268,14.437255,Noise
AGISI-MI-335,-5.861434,-3.4420722,7.8647785,Noise
AGISI-MI-339,-8.475242,-3.9975038,5.151868,Noise
AGISI-MI-342,-3.8327744,-6.971832,13.137415,Noise
AGISI-MI-347,-10.152108,-4.828646,5.6862917,Noise
AGISI-MI-353,-16.7201,-11.308366,3.1323152,Noise
AGISI-MI-355,-4.5354877,-8.305164,7.486857,Noise
AGISI-MI-361,-1.7474484,-5.050269,9.26029,Noise
AGISI-MI-362,-9.763759,-4.0077963,6.558045,Noise
AGISI-MI-373,-11.44758,-6.553838,8.637279,Noise
AGISI-MI-374,-8.479651,-1.0133237,10.159285,Noise
AGISI-MI-380,-4.3916464,-11.219265,16.527433,Noise
AGISI-MI-382,-12.034769,-11.121159,7.9658875,Noise
AGISI-MI-383,-13.229224,-6.1317716,8.14857,Noise
AGISI-MI-385,-8.540269,-15.081138,8.619467,Noise
AGISI-MI-391,-4.5700626,-15.690465,6.691349,Noise
AGISI-MI-393,-4.079451,-2.1659021,10.725585,Noise
AGISI-MI-396,-6.80153,-3.5345366,10.591125,Noise
AGISI-MI-399,-4.99219,-9.842069,8.743501,Noise
AGISI-MI-405,-2.922403,-12.165137,20.852936,Noise
AGISI-MI-406,-11.818148,-0.6342917,14.662559,Noise
AGISI-MI-415,-13.895623,-2.137299,11.59344,Noise
AGISI-MI-416,-19.43812,-5.4605536,11.975674,Noise
AGISI428,-1.5471469,-12.138398,13.671627,Noise
AGISI430,-17.062698,1.4246585,8.586809,Noise
AGISI-MI-433,-3.9946961,-8.165951,13.847413,Noise
AGISI-MI-435,-13.592938,-0.44493988,10.977966,Noise
AGISI-MI-438,-19.13184,-5.2078576,11.949994,Noise
AGISI-MI-440,-11.252073,-4.6466184,8.701761,Noise
AGISI-MI-443,-3.6408713,-10.652728,13.915869,Noise
AGISI-MI-447,-5.3343945,-14.478007,7.958762,Noise
AGISI-MI-449,-2.2658272,-8.218381,9.920302,Noise
AGISI-MI-453,-3.7164726,-7.9327173,7.345071,Noise
AGISI-MI-460,-14.0050955,-3.0211318,13.139468,Noise
AGISI-MI-466,-3.649967,-1.7014406,3.2022564,Noise
AGISI-MI-470,-8.222132,-7.3434787,7.3206344,Noise
AGISI-MI-471,-1.8460617,-9.298551,13.869561,Noise
AGISI-MI-476,-3.4666176,-6.29992,12.506507,Noise
AGISI-MI-479,-5.1598167,-1.7865424,12.480993,Noise
AGISI-MI-482,-4.873861,-13.215907,9.739747,Noise
AGISI-MI-483,-0.09114415,-3.1051397,14.060254,Noise
AGISI-MI-485,-6.647999,-3.4954357,4.212992,Noise
AGISI-MI-488,-5.671408,-13.464343,5.3874474,Noise
AGISI-MI-489,-13.60025,-1.2001526,9.584411,Noise
AGISI-MI-490,-11.345782,-14.493353,5.552705,Noise
AGISI-MI-494,1.0103972,-14.450569,12.01235,Noise
AGISI-MI-497,-2.176224,-7.386945,12.206848,Noise
AGISI-MI-503,-9.244253,-4.2625756,5.9385166,Noise
AGISI-MI-505,-7.228807,-2.0642958,9.392618,Noise
AGISI-MI-507,2.0936766,-10.111554,10.3259,Noise
AGISI-MI-510,-5.3382545,-3.435376,12.975276,Noise
AGISI-MI-513,-5.7263317,-9.685059,9.765982,Noise
AGISI-MI-521,-3.32446,-6.4371443,8.166152,Noise
AGISI-MI-522,-9.348312,-1.3216299,12.930523,Noise
AGISI-MI-527,-5.9636073,-3.8163931,5.137964,Noise
AGISI-MI-533,-6.3657513,-11.417334,7.1884947,Noise
AGISI-MI-538,-9.5675535,-4.617999,23.632906,Noise
AGISI-MI-543,-3.8979354,3.1883082,17.472795,Noise
AGISI-MI-547,-15.786108,-0.4559402,9.691828,Noise
AGISI-MI-548,-9.138687,-14.314103,12.364184,Noise
AGISI-MI-549,-6.730542,-16.511742,2.9484468,Noise
AGISI-MI-550,-3.7354074,-11.965403,6.6456275,Noise
AGISI-MI-551,-10.929293,-1.5978663,14.055311,Noise
AGISI-MI-553,-4.2781734,-9.579601,12.024505,Noise
AGISI-MI-556,-4.789978,-7.0311794,20.176044,Noise
AGISI-MI-557,-5.521155,-7.727592,6.831279,Noise
AGISI-MI-003,-10.055962,-5.794798,6.202856,Noise
AGISI-MI-009,-14.787738,-3.0893953,10.232624,Noise
AGISI-MI-015,-6.195792,-14.153911,11.550917,Noise
AGISI-MI-026,-6.2587185,-3.2982118,3.9000762,Cluster1
AGISI-MI-032,-8.322426,-3.3900485,5.952904,Noise
AGISI-MI-035,-5.794684,-9.015996,7.383462,Noise
AGISI-MI-039,-7.5719337,-5.0542684,6.5174503,Noise
AGISI-MI-046,-3.1495523,-7.1719527,8.520186,Noise
AGISI-MI-048,-5.730238,-0.8940264,8.091572,Noise
AGISI-MI-061,-5.5258007,-2.8475242,3.692152,Cluster1
AGISI-MI-068,-6.2819834,-10.345535,6.16386,Noise
AGISI-MI-080,-6.228286,-11.986113,11.643769,Noise
AGISI-MI-082,-2.2070935,-13.888879,7.8604293,Noise
AGISI-MI-089,-4.823943,-2.4577644,3.3632016,Cluster2
AGISI-MI-094,-5.0966477,-3.5209217,15.257668,Noise
AGISI-MI-100,-5.4624743,-2.6512866,3.7933323,Cluster1
AGISI-MI-116,-5.5786066,-2.8181713,3.9115512,Cluster1
AGISI-MI-121,-6.6115856,-3.1597364,18.469873,Noise
AGISI-MI-130,-13.239688,-7.5353203,8.110626,Noise
AGISI-MI-131,-8.822769,0.84753203,14.197709,Noise
AGISI-MI-136,-4.3885913,-4.7633533,10.0029745,Noise
AGISI-MI-141,-2.618155,-7.858836,15.0616045,Noise
AGISI-MI-145,-5.340481,-13.7171755,12.871609,Noise
AGISI-MI-153,-1.3554103,-7.298267,7.665466,Noise
AGISI-MI-176,-22.68774,1.750936,10.815363,Noise
AGISI-MI-179,-6.0501294,-4.752474,14.4952545,Noise
AGISI-MI-189,-5.1663804,-8.383499,15.682789,Noise
AGISI-MI-192,-6.9157243,-3.450586,10.061006,Noise
AGISI-MI-194,-3.1478286,-15.603285,6.5813584,Noise
AGISI-MI-196,-5.8377094,-2.8499768,4.0516148,Cluster1
AGISI-MI-213,-3.7720034,-6.820295,8.358033,Noise
AGISI-MI-219,-6.5156107,-4.220149,12.229433,Noise
AGISI-MI-228,-6.2688913,-2.7477734,14.710153,Noise
AGISI-MI-231,-3.957016,-3.5980506,8.313781,Noise
AGISI-MI-247,-15.029751,-11.089066,8.033978,Noise
AGISI-MI-251,-9.797496,2.077904,13.993801,Noise
AGISI-MI-253,-7.3399596,-1.3616148,11.917588,Noise
AGISI-MI-257,-3.3021145,-3.1683826,6.7340484,Noise
AGISI-MI-261,-2.4280205,-3.7729013,10.2408085,Noise
AGISI-MI-270,-3.5534143,-7.492669,9.380417,Noise
AGISI-MI-273,-7.553055,-3.5567105,5.550423,Noise
AGISI-MI-277,-8.7417145,-8.65783,7.222713,Noise
AGISI-MI-296,-11.130508,0.1879183,9.678232,Noise
AGISI-MI-329,-5.276706,-18.054316,14.41399,Noise
AGISI-MI-340,-3.6105647,-6.739958,8.0403805,Noise
AGISI-MI-351,-12.365927,-15.278859,10.329607,Noise
AGISI-MI-370,-8.626669,0.83203554,17.98839,Noise
AGISI-MI-375,-7.828606,-14.3302,8.226948,Noise
AGISI-MI-377,-6.91252,-2.2317398,10.229242,Noise
AGISI-MI-394,-6.564987,-9.904883,5.8305535,Noise
AGISI-MI-402,-4.486482,-4.5237436,16.664154,Noise
AGISI-MI-426,-3.065322,-3.540803,8.779232,Noise
AGISI-MI-436,-9.938658,-9.379734,7.095498,Noise
AGISI-MI-448,-5.549378,-9.088839,16.152336,Noise
AGISI-MI-459,-7.426824,-3.512695,5.836795,Noise
AGISI-MI-481,-11.761668,-0.53671515,13.354488,Noise
AGISI-MI-487,-3.4355443,-2.2381244,2.971272,Noise
AGISI-MI-519,-3.9610915,-6.153482,4.7960424,Noise
AGISI-MI-520,-1.6360648,-7.9984713,14.138843,Noise
AGISI-MI-537,-6.1424623,-2.9232137,4.100234,Cluster1
AGISI-MI-554,-4.362839,-4.6919737,4.001983,Noise
AGISI-HI-002,-6.3753524,-2.9598124,4.202716,Cluster1
AGISI-HI-004,-3.1650367,-7.0315933,7.0381517,Noise
AGISI-HI-027,-2.3105538,-3.4590366,11.037244,Noise
AGISI-HI-028,-5.244765,-0.9487406,7.248961,Noise
AGISI-HI-029,-5.360055,-2.5080678,3.877287,Cluster1
AGISI-HI-033,-5.140808,-11.408076,10.119287,Noise
AGISI-HI-049,-2.9983258,-5.708561,10.088268,Noise
AGISI-HI-052,-6.260486,-3.5240598,10.601442,Noise
AGISI-HI-053,-4.453231,-2.2241225,3.234573,Cluster2
AGISI-HI-056,-8.562597,-4.5437603,5.8986588,Noise
AGISI-HI-064,-4.539859,-2.5892003,3.6821523,Noise
AGISI-HI-065,-11.426338,-1.8892717,17.538305,Noise
AGISI-HI-069,-9.178557,-14.330521,11.794772,Noise
AGISI-HI-071,-8.545398,-9.662463,7.3921986,Noise
AGISI-HI-081,-5.4019914,-2.4354947,3.5000606,Cluster1
AGISI-HI-106,-12.544739,-17.803125,9.4010725,Noise
AGISI-HI-109,-1.2007821,-2.6832767,15.780392,Noise
AGISI-HI-111,-7.181371,-3.383581,4.851686,Noise
AGISI-HI-113,-10.463681,-1.1145761,15.028863,Noise
AGISI-HI-117,-6.4883323,-5.409132,6.3405433,Noise
AGISI-HI-142,-11.62284,-14.145981,9.40823,Noise
AGISI-HI-155,-10.384976,-4.788262,6.159423,Noise
AGISI-HI-165,-6.364666,-3.1151583,4.0125375,Cluster1
AGISI-HI-166,-5.7036843,-7.936942,11.462255,Noise
AGISI-HI-170,-8.82877,-6.5346613,19.189972,Noise
AGISI-HI-175,3.1532457,-6.0754128,16.972988,Noise
AGISI-HI-180,-8.193161,-9.323811,6.6360607,Noise
AGISI-HI-187,-10.282863,-9.253727,8.581556,Noise
AGISI-HI-205,-9.484094,-0.52186054,12.213339,Noise
AGISI-HI-206,-2.7563815,-2.8358982,9.443514,Noise
AGISI-HI-211,-3.6094003,-8.35143,8.698438,Noise
AGISI-HI-217,-4.286562,-2.6870518,3.607497,Noise
AGISI-HI-220,1.7928042,-4.1740246,13.76809,Noise
AGISI-HI-221,-5.2541146,-2.6043344,13.746635,Noise
AGISI-HI-230,-13.535682,-5.0266037,6.2711515,Noise
AGISI-HI-232,-2.9874756,-7.5354567,6.467817,Noise
AGISI-HI-239,-7.6803665,-11.3930235,16.54958,Noise
AGISI-HI-243,-4.3533497,-8.02735,16.73865,Noise
AGISI-HI-244,-8.984993,-9.516388,4.8211803,Noise
AGISI-HI-246,-2.9440818,-2.3375635,2.9612422,Noise
AGISI-HI-256,-4.223159,-10.027129,8.962964,Noise
AGISI-HI-259,-12.842008,3.1206927,17.669868,Noise
AGISI-HI-266,-7.1560545,0.7655803,15.138179,Noise
AGISI-HI-279,-4.8054037,-1.4040046,8.973272,Noise
AGISI-HI-283,-8.780875,-0.7462717,12.595329,Noise
AGISI-HI-284,-4.250015,-4.18448,14.160785,Noise
AGISI-HI-312,-3.855071,6.896387,20.75229,Noise
AGISI-HI-316,-1.597182,-3.9714878,8.05072,Noise
AGISI-HI-335,-10.836054,-4.365709,6.1055436,Noise
AGISI-HI-339,-10.57478,-10.855105,8.032958,Noise
AGISI-HI-342,-5.4434857,-2.6983144,3.4036677,Cluster1
AGISI-HI-347,-15.50325,-9.551429,10.16216,Noise
AGISI-HI-353,-17.443266,-8.84709,3.3024795,Noise
AGISI-HI-362,-8.177667,-4.050844,5.4902844,Noise
AGISI-HI-373,-6.1943173,-9.532565,8.300582,Noise
AGISI-HI-380,-2.215129,-7.3859735,13.549505,Noise
AGISI-HI-382,-11.603345,-12.256712,8.231708,Noise
AGISI-HI-383,-5.74109,-8.3723345,8.30869,Noise
AGISI-HI-385,-7.8975606,-3.7342389,6.2969418,Noise
AGISI-HI-391,-6.490857,-13.104088,7.6039233,Noise
AGISI-HI-399,-8.410308,-8.110984,7.284477,Noise
AGISI-HI-415,-4.5157437,-2.3404899,3.073246,Cluster2
AGISI-HI-428,-4.2439337,-7.9293404,19.726557,Noise
AGISI-HI-433,-3.1669002,-10.188808,8.444374,Noise
AGISI-HI-438,-15.29398,-8.658857,7.007593,Noise
AGISI-HI-443,-3.881505,-10.349194,13.2118635,Noise
AGISI-HI-447,-7.9221663,-16.577942,11.188811,Noise
AGISI-HI-449,-13.316939,-0.98516834,10.678859,Noise
AGISI-HI-453,-4.996277,-2.4517825,3.5341597,Cluster1
AGISI-HI-466,-1.3911494,-5.491988,10.637808,Noise
AGISI-HI-471,0.6427363,-10.296299,13.234703,Noise
AGISI-HI-476,-15.155908,-7.9312496,9.200501,Noise
AGISI-HI-479,-4.1438646,-2.6937852,11.65751,Noise
AGISI-HI-483,-18.262424,-1.3770113,12.069137,Noise
AGISI-HI-488,-12.872022,-7.971759,7.90747,Noise
AGISI-HI-489,-11.473814,-1.1092138,10.707665,Noise
AGISI-HI-490,-6.9542527,-9.172058,5.3419785,Noise
AGISI-HI-494,3.3321638,-11.833894,9.93859,Noise
AGISI-HI-497,-2.4960856,-8.028794,10.94214,Noise
AGISI-HI-503,-8.872671,-3.701388,6.2212763,Noise
AGISI-HI-507,-3.1272907,-2.3341093,2.8725774,Noise
AGISI-HI-533,-2.635734,-8.90319,12.898939,Noise
AGISI-HI-538,-16.670519,-1.8595755,16.101109,Noise
AGISI-HI-543,-5.39289,0.68871564,17.513395,Noise
AGISI-HI-547,-6.062262,-2.8857005,4.027432,Cluster1
AGISI-HI-548,-3.3689778,-7.3671274,15.889476,Noise
AGISI-HI-549,-5.993976,-3.452947,13.391271,Noise
AGISI-HI-553,-0.3458944,-2.784853,14.162804,Noise
AGISI-HI-556,-2.3483586,-5.386677,16.351198,Noise
AGISI-HI-034,-8.486753,-4.0216656,5.5736237,Noise
AGISI-HI-097,-4.7082567,-4.391128,10.00679,Noise
AGISI-HI-201,-6.8754935,9.11136,19.491333,Noise
AGISI-HI-371,-7.5397105,-3.6465554,5.3421583,Noise
AGISI-HI-172,-11.8076935,-2.167904,14.748267,Noise
AGISI-HI-401,-12.234663,-7.5436463,7.373162,Noise
AGISI-HI-445,-6.197913,-2.195623,12.110225,Noise
AGISI-HI-005,-14.410932,-6.531851,9.04234,Noise
AGISI-HI-226,-7.909637,-3.0238497,6.398711,Noise
AGISI-HI-276,-12.83506,-13.874408,8.405153,Noise
AGISI-HI-310,-8.477876,-4.2876267,5.6342607,Noise
AGISI-HI-421,-1.4801108,-6.682572,11.773806,Noise
AGISI-HI-026,-3.957202,-6.7438283,8.231633,Noise
AGISI-HI-082,-1.6710086,-13.793617,7.6073537,Noise
AGISI-HI-100,-5.666847,-2.6542072,3.983092,Cluster1
AGISI-HI-116,-5.3253775,-2.5309796,3.9123633,Cluster1
AGISI-HI-130,-14.846768,-4.9722376,8.926298,Noise
AGISI-HI-194,-3.8113067,-2.3366299,2.997619,Noise
AGISI-HI-247,-8.841544,-2.6020157,10.945297,Noise
AGISI-HI-273,-4.6816664,-2.3804314,3.1374967,Cluster2
AGISI-HI-370,-9.091798,1.5936004,18.484478,Noise
AGISI-HI-436,-7.5931435,-1.472442,9.805632,Noise
AGISI-HI-448,-2.9044027,-6.625159,11.715857,Noise
AGISI-HI-481,-11.5702715,-0.51822215,13.159319,Noise
AGISI-HI-487,-7.5758476,-2.2531352,7.5812488,Noise
AGISI-HI-520,-4.6500993,-6.9360647,9.101419,Noise
AGISI-HI-537,-6.290226,-3.0899656,3.9400027,Cluster1
AGISI-HI-554,-5.2494936,-7.148564,4.785598,Noise
AGISI-HI-183,-9.269038,-0.044830084,7.278656,Noise
AGISI-HI-203,-6.5248513,-1.8333237,14.783917,Noise
AGISI-HI-301,-15.5985775,-1.082206,11.360338,Noise
AGISI-HI-544,-7.654165,-10.4477005,9.515573,Noise
AGISI-HI-021,-6.8581457,-3.00598,4.6353216,Noise
AGISI-HI-095,-6.4366226,-2.9645905,4.174849,Cluster1
AGISI-HI-368,-8.312655,-3.189358,6.2138615,Noise
AGISI-HI-526,-7.3111362,-10.256445,8.430258,Noise
AGISI0001,-3.923977,-6.064876,5.5523596,Noise
AGISI0002,-4.908172,-6.4202833,4.385473,Noise
AGISI0003,-7.699908,-3.6451275,5.1186404,Noise
AGISI0004,-4.692915,-2.3075073,3.2815385,Cluster2
AGISI0005,-9.97925,-3.0214393,8.803544,Noise
AGISI0006,-5.9487977,-3.240513,12.453512,Noise
AGISI0007,-15.2,-2.070223,12.276554,Noise
AGISI0008,-7.7774444,-11.918642,6.023186,Noise
AGISI0009,-5.8633246,-2.955565,3.7627494,Cluster1
AGISI0010,-6.4770746,-0.77083325,8.590831,Noise
AGISI0011,-6.602369,-9.834099,7.4474325,Noise
AGISI0012,-4.8267097,-14.124716,11.644738,Noise
AGISI0013,-6.7462153,-3.8883643,11.80674,Noise
AGISI0014,-9.057043,-4.9604425,6.108004,Noise
AGISI0015,-6.277964,-3.0046859,4.049716,Cluster1
AGISI0016,-4.9048853,-4.5957384,11.533771,Noise
AGISI0017,-7.8479443,-1.315368,9.658394,Noise
AGISI0018,-9.76754,-4.8991194,6.867922,Noise
AGISI0019,-10.224364,-1.0776092,13.904268,Noise
AGISI0020,-14.084099,-1.5954052,9.637697,Noise
AGISI0021,-6.7739964,-3.7003758,5.574962,Noise
AGISI0022,-8.604864,-3.5438633,6.6128,Noise
AGISI0023,-7.4569793,-5.7965775,10.384498,Noise
AGISI0024,-9.208416,-4.3480854,19.353834,Noise
AGISI0025,-8.835595,-2.3528678,8.305358,Noise
AGISI0026,-4.710173,-2.254339,3.0794754,Cluster2
AGISI0027,-11.732681,-13.708891,8.284156,Noise
AGISI0028,-4.6698384,-5.2948627,8.3747225,Noise
AGISI0029,-13.749929,-10.507914,9.1884,Noise
AGISI0030,0.20453548,-13.002051,14.661437,Noise
AGISI0031,-17.953783,-11.057855,-0.67234546,Noise
AGISI0032,-2.9794867,-7.3783727,13.870508,Noise
AGISI0033,-4.4273677,-11.638996,14.743188,Noise
AGISI0034,-4.4921722,-8.807988,7.987588,Noise
C0001,-4.7079186,-3.0767553,3.626029,Noise
C0002,-4.648861,-2.326142,3.0586042,Cluster2
C0003,-5.915149,-2.9535313,4.1884575,Cluster1
C0004,-7.096518,-7.6289406,5.138914,Noise
C0005,-5.6991816,-2.7828362,3.732431,Cluster1
C0006,-3.8683903,-4.470928,8.591376,Noise
C0007,-6.124033,-3.181426,3.85181,Cluster1
C0008,-9.8735895,-1.2588644,13.17059,Noise
C0009,-5.91293,-1.7416296,12.590038,Noise
C0010,-4.2892694,-2.1116753,3.059209,Cluster2
C0011,-10.736121,-3.4194858,7.3855395,Noise
C0012,-4.914025,-3.101748,3.7247272,Noise
C0013,-2.8873656,-1.710661,2.9778578,Noise
C0014,-6.022044,-3.0031962,3.829094,Cluster1
C0015,-4.747619,-2.20502,12.482956,Noise
C0016,-7.5817175,-1.0025445,5.1061454,Noise
C0017,-13.003472,-7.0995975,2.2207913,Noise
C0018,-4.1247835,-2.3372688,3.0382648,Noise
P0001,-9.214935,-4.5345554,11.487594,Noise
P0002,-3.0230498,-4.474522,13.312816,Noise
P0003,-3.4535036,-15.449311,13.858865,Noise
P0004,-4.8433733,-2.3081403,3.6205883,Cluster2
P0005,-2.7976725,-5.053613,4.810988,Noise
P0006,-10.360284,-10.689758,9.138902,Noise
P0007,-4.3219376,-11.095299,8.044327,Noise
P0008,-0.40936208,-3.0514452,16.560379,Noise
P0009,-11.291967,-6.303378,-0.332668,Noise
P0010,-9.33243,-11.677376,8.16855,Noise
P0011,3.3743668,-13.4836,15.220775,Noise
P0012,-4.6029773,-3.6214476,14.215589,Noise
P0013,-11.529583,-3.9869654,7.9706526,Noise
P0014,-6.153636,-3.1672962,4.2151017,Cluster1
P0015,-3.408677,-6.4188323,14.697466,Noise
P0016,-2.6123862,-7.8696756,11.980573,Noise
P0017,-3.8120184,-2.2340672,3.3681924,Noise
P0018,-2.856755,-2.0883489,2.753482,Noise
P0019,-5.7352357,-2.6248796,3.7894008,Cluster1
P0020,-3.2518337,-10.127971,8.254632,Noise
P0021,-1.7174611,-6.7382493,14.34934,Noise
P0022,-9.322082,-4.856711,6.3241687,Noise
P0023,-2.6366522,-6.7614846,8.08418,Noise
P0024,-2.7717497,-8.473367,12.794463,Noise
P0025,-11.032515,-8.570115,7.4851675,Noise
P0026,-5.33659,-3.1354795,15.307191,Noise
P0027,2.3213546,-5.554876,21.710339,Noise
P0028,-9.64507,0.6423814,16.863249,Noise
P0029,-3.1574297,-1.2452946,8.058208,Noise
P0030,-5.924931,-2.358416,14.825878,Noise
P0031,-3.8110943,-16.063477,13.743763,Noise
P0032,-10.7475605,-0.24873275,9.970113,Noise
P0033,-3.8576713,-1.6689912,2.9683452,Noise
P0034,-7.1326504,-17.872562,7.04871,Noise
P0035,-2.5777755,-9.342569,11.883635,Noise
A0001,-9.12128,-4.854455,5.9672875,Noise
A0002,-9.903814,-12.780559,3.859593,Noise
A0003,-4.774375,-2.2450716,3.335851,Cluster2
A0004,-8.385136,-15.69144,8.0141735,Noise
A0005,-5.9235725,-2.9381032,3.8746018,Cluster1
A0006,-5.251451,-2.539231,3.293247,Cluster1
A0007,-11.4230175,-0.87336016,10.741893,Noise
A0008,-10.179041,-4.1524134,6.8976502,Noise
A0009,-12.284613,-2.0802064,7.566753,Noise
A0010,-6.342323,-2.89446,4.1625843,Cluster1
A0011,-8.206386,-0.9568732,6.94841,Noise
A0012,-3.9756417,-9.972072,12.04612,Noise
A0013,-8.777109,-4.0219154,6.6836615,Noise
A0014,-6.181011,-3.173323,5.382694,Noise
A0015,1.4723492,-2.689345,11.261125,Noise
A0016,-7.386247,-1.6228886,6.941008,Noise
A0017,2.538031,-3.7345145,13.567073,Noise
A0018,-9.428314,-6.306474,9.940904,Noise
