word,x,y,cluster
engin,-0.8688756,-1.2388837,Cluster1
spot,0.03663379,0.5077773,Cluster1
plausibl,0.30453426,0.70869845,Cluster1
domin,0.2964123,-1.0078952,Cluster1
compon,-0.5007908,-1.1488991,Cluster1
necessari,-1.4592236,-0.80623937,Cluster1
aggreg,0.6352852,-1.0335183,Cluster1
revisit,-0.12186408,-0.37168482,Cluster1
underlin,-0.8596855,-1.763711,Cluster1
chang,-0.8614494,-1.1985635,Cluster1
part,0.09870386,-0.91078264,Cluster1
add,0.38802654,-1.6813558,Cluster1
instanc,-0.036311984,-1.4810596,Cluster1
abduct,-0.4214555,-0.6630863,Cluster1
leverag,-1.8164907,-0.21273088,Cluster1
written,-0.91927254,-1.1438255,Cluster1
continuum,-0.7987741,0.12869757,Cluster1
general,-0.08213961,-1.6831782,Cluster1
metaphor,-0.052960753,-1.2572118,Cluster1
threshold,-1.7087519,-2.3731573,Noise
coordin,0.043839276,-1.7373829,Cluster1
pleasur,-1.1382003,-0.6050123,Cluster1
unit,-0.0065587163,-1.3614037,Cluster1
task,-0.28969705,-1.1764534,Cluster1
form,-0.060103297,-1.3379155,Cluster1
sensor,-0.085977435,-0.87537336,Cluster1
essenc,-0.6264932,-1.4576632,Cluster1
action,-0.38523883,-1.2839136,Cluster1
exist,-0.7334966,-0.84238094,Cluster1
languag,-0.7814742,-1.1731627,Cluster1
attempt,0.34523255,-0.22577399,Cluster1
alreadi,-0.8025962,0.94884235,Cluster1
ant,-1.2147435,-1.3969839,Cluster1
analyz,-2.357643,0.03849995,Cluster1
tool,-0.5099224,-1.2343237,Cluster1
attribut,0.047461867,-0.68818855,Cluster1
tend,-0.8577028,-0.80632186,Cluster1
either,-0.4830493,-1.8180264,Cluster1
behavior,-0.2862605,-1.2841522,Cluster1
artifici_intellig,-0.41336107,-1.198379,Cluster1
patholog,-1.4402614,-1.5110507,Cluster1
fit,-1.0790434,-0.99908286,Cluster1
epiphenomenon,-1.7490067,0.4347294,Cluster1
speed,-0.05155593,-0.8645234,Cluster1
strike,-0.11826807,-0.8640727,Cluster1
base,0.13479424,-1.1045585,Cluster1
act,-0.23508966,-1.3320276,Cluster1
output,-1.3245993,-1.2885263,Cluster1
implement,-0.2308265,-1.0654452,Cluster1
long,-1.0644064,-0.6626072,Cluster1
provid,-1.3788682,-0.93121463,Cluster1
smart,-0.77214533,-0.69546396,Cluster1
error,-0.46425253,0.21615249,Cluster1
rang,-0.7591963,-1.2239153,Cluster1
put,0.4222327,-1.1551118,Cluster1
investig,-1.08504,1.27354,Noise
entir,-0.32234937,-1.0481243,Cluster1
capabl,-0.10122329,-1.5609317,Cluster1
outer,-1.2542244,-0.09089452,Cluster1
generalis,-1.4677223,-0.7724985,Cluster1
dynam,-2.4766648,-1.14151,Cluster1
distinguish,-0.8490501,-1.1687717,Cluster1
recogn,0.36431152,-1.6445358,Cluster1
priori,-0.51136935,-1.3016526,Cluster1
judg,-2.050103,-1.228334,Cluster1
describ,-1.3127759,-1.8887224,Cluster1
interpret,0.89754003,-1.8126419,Noise
good,-0.36843795,-0.75732285,Cluster1
prior,-2.0412745,-0.24637765,Cluster1
face,-0.686744,-1.6153548,Cluster1
rather,-0.41166344,-0.8182327,Cluster1
degre,-0.07058203,-0.2912956,Cluster1
creat,0.27766722,-1.3971481,Cluster1
measur,-0.66697395,-1.4632361,Cluster1
lifespan,0.19463056,-1.9134204,Cluster1
theori,-0.3006884,-0.8515934,Cluster1
shape,-2.0970144,-0.0845238,Cluster1
histori,-0.08218199,-0.9091159,Cluster1
imit,-0.5137814,0.38173455,Cluster1
includ,-0.58551246,-1.5986354,Cluster1
close,-0.5950945,-1.6110873,Cluster1
teach,-2.3349528,-0.18286318,Cluster1
avail,-0.78543895,-1.1100082,Cluster1
arriv,-1.2327608,-0.7906668,Cluster1
user,-0.95555735,-0.498314,Cluster1
keep,-0.73921686,-0.6061232,Cluster1
exampl,-0.7390053,-0.19191653,Cluster1
shortcut,-1.3685372,-1.7115402,Cluster1
obstacl,0.22685832,-1.7180206,Cluster1
sustain,0.33277673,-0.94407743,Cluster1
rule,-1.413694,-0.42430636,Cluster1
hardwir,0.08522326,-0.5664239,Cluster1
els,1.3503914,-0.8171385,Noise
grant,0.15605718,-1.5048933,Cluster1
count,0.32897526,-0.6676414,Cluster1
hedg,-0.23505205,-0.1239478,Cluster1
scenario,-0.44590738,-0.64356625,Cluster1
defin,-0.7431773,-1.4143019,Cluster1
past,-0.16173989,-0.46101832,Cluster1
collect,-0.751219,-1.3682098,Cluster1
be,-0.5341778,-1.5754752,Cluster1
behaviour,-0.22504503,-0.95693994,Cluster1
equal,-0.3156913,1.006392,Noise
lot,0.010681152,-0.91637284,Cluster1
field,-0.5507199,-0.31696057,Cluster1
must,-0.18884599,-1.5522735,Cluster1
minim,-1.4600974,-1.5337718,Cluster1
mass,-0.17341775,-0.7100805,Cluster1
short,0.09623003,-0.4718703,Cluster1
reward,0.1251356,-0.93777776,Cluster1
unalt,-0.94423956,-1.9238195,Cluster1
term,-0.31699252,-1.5281129,Cluster1
facil,-2.6733415,-0.81729025,Cluster1
deeper,-0.6980773,-0.5487709,Cluster1
consid,-0.3321384,-1.1565795,Cluster1
clarifi,-1.3520104,-0.82078964,Cluster1
case,-1.01571,-1.8680866,Cluster1
possibl,0.102550685,-1.0192292,Cluster1
could,-0.6077494,-1.0106514,Cluster1
abstract,-0.34806272,-1.4380047,Cluster1
circumst,0.51579636,-0.88086635,Cluster1
analog,-0.46039104,-1.133589,Cluster1
highest,-0.94551075,-0.6537804,Cluster1
activ,-1.3368838,-0.5342051,Cluster1
guidanc,-1.0805972,0.28017825,Cluster1
ontolog,-2.2643816,0.11701709,Cluster1
adequ,-1.1448654,-0.45384,Cluster1
random,-0.43451756,-0.83828926,Cluster1
solv,-0.92323935,-1.4180558,Cluster1
subgoal,-1.4101355,-1.2946678,Cluster1
inher,-1.2372977,-1.7678654,Cluster1
optim,-0.20090371,-1.001028,Cluster1
memor,-0.76782,-2.36049,Cluster1
rank,0.1221717,-0.5857084,Cluster1
need,-0.31762528,-1.1396476,Cluster1
known,0.4170274,-1.1831522,Cluster1
within,-1.0072101,-1.3982799,Cluster1
acquisit,1.3503926,-0.5198492,Noise
rememb,-0.5659157,-0.68166256,Cluster1
manner,-0.43631944,0.5677019,Cluster1
broad,0.023711741,-1.3424888,Cluster1
one,-0.103422105,-1.1363245,Cluster1
given,-0.79894704,-0.6674129,Cluster1
skill,-0.34858626,-0.7423974,Cluster1
emul,-1.5293888,-1.8676984,Cluster1
analyt,1.0441041,-1.2773813,Noise
various,-1.0614651,-0.0135234,Cluster1
typic,-0.5184819,-1.4630756,Cluster1
accomplish,-0.8216507,-1.1371965,Cluster1
darwinian,0.022407591,-1.7542058,Cluster1
cognit,-0.7932315,-1.0634608,Cluster1
anticipatori,-0.50040007,-1.5927296,Cluster1
multi,-1.2939703,-0.96606606,Cluster1
experi,0.1798597,-1.3057833,Cluster1
octopus,-1.1850537,-0.37031692,Cluster1
proper,0.51595503,-0.7339475,Cluster1
know,0.8560119,-0.31591386,Cluster1
factor,-0.32582405,-0.5541105,Cluster1
qualiti,-0.8357825,-0.84974015,Cluster1
characterist,-1.5442277,-0.73292136,Cluster1
hard,-1.4264325,-0.3377458,Cluster1
concern,-1.7024069,-0.62783355,Cluster1
integr,-0.8446497,-1.3274325,Cluster1
c,0.68710417,-0.7835901,Cluster1
increas,-0.85535467,-1.2079041,Cluster1
b,-0.9054756,-0.4195065,Cluster1
retain,-0.19204962,-0.9585162,Cluster1
engag,-0.87312734,-0.32853222,Cluster1
hypothes,-1.5534527,-0.109319866,Cluster1
catch,0.28323537,-0.6572266,Cluster1
dolphin,-2.1487784,-1.3060685,Cluster1
occur,-0.16307008,-1.6571859,Cluster1
machin_intellig,-0.30811608,-0.99618244,Cluster1
other,-0.3740727,-0.860611,Cluster1
strategi,-0.90804446,-1.239107,Cluster1
broader,-0.23690784,-0.45818025,Cluster1
order,-1.0065663,-0.8402114,Cluster1
decomposit,-0.5403487,0.28791457,Cluster1
whether,-1.1551048,-1.0542157,Cluster1
foreseen,-0.39419466,-1.1785387,Cluster1
organ,-0.026354015,-1.0605677,Cluster1
symbol,-2.2495477,-0.19678938,Cluster1
persuad,-0.20410287,-2.103232,Cluster1
empathi,-0.66347533,-1.4930431,Cluster1
result,-0.6681637,-1.3496735,Cluster1
unitari,-1.942297,-1.3147774,Cluster1
self,-0.32807085,-1.379425,Cluster1
whole,-2.2250867,-1.0638664,Cluster1
imperfect,0.52678245,-0.38415372,Cluster1
depend,-1.9712155,-2.14183,Cluster1
peer,-0.8160075,-0.74090576,Cluster1
possess,-0.34422964,-1.0638512,Cluster1
coupl,-1.9070284,-1.9457278,Cluster1
sensori,-0.16992962,-0.9747741,Cluster1
actor,0.05563265,0.5539945,Cluster1
otherwis,-2.4199555,-1.5126522,Cluster1
feel,-0.021731853,-1.6145213,Cluster1
homo,-1.3316905,-0.5456042,Cluster1
quantifi,-0.17332625,0.53410834,Cluster1
vari,-0.05868286,-0.1622752,Cluster1
aggrav,0.330198,-0.87565017,Cluster1
enough,-1.0025363,-1.167512,Cluster1
social,-0.2882946,-1.2075651,Cluster1
mark,-0.9283562,-0.7279222,Cluster1
devic,0.94829303,-1.7433368,Noise
configur,-2.034533,-1.0495334,Cluster1
perfect,-1.1057549,-1.401135,Cluster1
mammilian,-0.5201081,-0.20662373,Cluster1
unseen,-1.5636518,-1.2153271,Cluster1
repertoir,-0.94662815,-1.5268447,Cluster1
oneself,-1.3045642,-1.2781266,Cluster1
word,-0.114390194,-1.0914731,Cluster1
game,-0.58769417,-0.12971109,Cluster1
affect,-0.2681747,-0.67650396,Cluster1
beauti,0.09392506,-1.2386334,Cluster1
life,-0.9667293,-0.45717278,Cluster1
quit,-0.32324457,-0.35675177,Cluster1
exploit,0.06013316,-0.3351734,Cluster1
event,-1.5125351,-1.0005649,Cluster1
aid,-0.24083716,-1.6335039,Cluster1
pinpoint,-0.96731365,-1.2133751,Cluster1
react,-1.5206401,0.20473081,Cluster1
support,-0.44580194,-0.55172616,Cluster1
resolv,-1.4077218,-1.4037259,Cluster1
bio,-2.1016648,0.9626911,Noise
process,-0.16937435,-1.0526627,Cluster1
hierarchi,-0.22692174,-0.8032161,Cluster1
endow,-0.64101267,-0.8322934,Cluster1
idea,-0.622183,-0.4538696,Cluster1
extent,-0.12079048,-1.1122054,Cluster1
manipul,-1.0391064,-1.0667832,Cluster1
unobtain,-1.4677584,1.1858423,Noise
algorithm,-1.1511292,-0.3679377,Cluster1
high,-0.4099148,-0.9230074,Cluster1
upon,-0.24483466,-1.3704927,Cluster1
issu,-1.9809086,-1.5294597,Cluster1
knowledg,0.05276078,-1.2164601,Cluster1
peopl,-0.4232879,-1.1271194,Cluster1
spirit,-1.6415293,-1.8742151,Cluster1
right,0.39504308,-0.6166831,Cluster1
howev,-0.42754248,-0.6271879,Cluster1
pattern,-1.1290208,-1.1184584,Cluster1
simpl,-1.7640123,0.2954797,Cluster1
iq,-1.275403,0.45481902,Cluster1
avoid,-1.7727333,-0.2741722,Cluster1
though,0.2748317,-1.7559751,Cluster1
complex,-1.023224,-1.1202905,Cluster1
simpli,-0.54501384,-1.218089,Cluster1
foremost,-0.74875903,-0.58890724,Cluster1
synthesi,-1.8178407,-2.3783379,Noise
beyond,-2.6140778,-0.4528132,Cluster1
locat,-0.78236604,-1.2625117,Cluster1
place,-1.0414581,-0.271778,Cluster1
allow,-0.758008,-1.1786263,Cluster1
bare,0.17244554,-0.5948351,Cluster1
membership,-0.07131547,-0.9073597,Cluster1
want,-0.35878056,-1.4577191,Cluster1
agent,-1.2540787,-1.111718,Cluster1
resourc,0.0808993,-1.3897064,Cluster1
materi,-0.4809981,0.06986368,Cluster1
communic,-0.6134448,-1.1145301,Cluster1
preced,-0.7342005,-0.7998176,Cluster1
address,-0.88167906,-0.58363,Cluster1
puzzl,0.59752554,-0.7791943,Cluster1
reli,-1.1962054,-0.5098235,Cluster1
recurr,-2.2835965,-0.18290883,Cluster1
balanc,-1.6029661,0.3388273,Cluster1
tendenc,-1.2231467,-1.1930681,Cluster1
coevolutionari,-0.89969033,-1.4456899,Cluster1
aesthet,-0.6541359,0.89088255,Cluster1
posit,-0.28696918,-1.0239522,Cluster1
horizon,0.027508497,-1.3644311,Cluster1
profound,0.17737311,-0.02509588,Cluster1
recognis,-0.49861956,-1.1522509,Cluster1
appreci,-0.033974826,-0.93093103,Cluster1
throughout,-0.45323956,-0.34853318,Cluster1
awar,0.29341286,-1.5616653,Cluster1
live,-1.2597317,-1.7495195,Cluster1
probabl,0.15815115,-3.3210382,Noise
appropri,0.55472916,-0.54705834,Cluster1
innov,-0.68210566,-0.5018294,Cluster1
taken,1.4231751,-1.2842718,Noise
system,-0.1076349,-1.0290662,Cluster1
heurist,-1.3746355,-0.79356587,Cluster1
pose,-2.1410348,-0.18411666,Cluster1
nervous,-1.1099281,-0.6827362,Cluster1
recollect,-1.565914,-0.65063965,Cluster1
thus,-1.3264605,-1.1156217,Cluster1
pursu,-1.4052918,-0.15379113,Cluster1
trial,-0.7287261,-1.4047683,Cluster1
particular,-0.5197941,-0.8520754,Cluster1
share,-0.39602268,-0.325343,Cluster1
acquir,-1.161225,-0.6529959,Cluster1
distract,-1.337352,-0.29242295,Cluster1
open,0.5809528,-1.3600111,Cluster1
set,-0.20683062,-1.3367302,Cluster1
machin,-0.76931524,-1.2336425,Cluster1
scienc,-1.9944072,-1.5249441,Cluster1
identifi,-0.3374772,-0.6294821,Cluster1
cultur,-0.6922403,-1.5621452,Cluster1
brain,0.17312312,-0.7901355,Cluster1
upright,-0.57554126,0.14445275,Cluster1
help,-0.40247035,0.39412922,Cluster1
manifest,-0.27996266,-1.4467206,Cluster1
effici,-1.0326065,-1.4132936,Cluster1
debug,-1.2404835,-0.41275725,Cluster1
power,-2.0882883,-1.1009517,Cluster1
mere,-1.9237401,0.12280959,Cluster1
accord,-0.6244368,-0.5412513,Cluster1
relationship,-0.49629667,-0.5671016,Cluster1
effect,-0.97419167,-1.2248858,Cluster1
explan,-1.9776521,-1.0584657,Cluster1
condit,-1.3196802,-0.040416062,Cluster1
deriv,-0.5315873,-1.034865,Cluster1
anticip,-1.3664972,-0.9189285,Cluster1
illus,-0.40696704,-0.75888205,Cluster1
new,-1.1784053,-0.7125538,Cluster1
contextu,-0.33533385,0.16555285,Cluster1
tor,-1.4065027,-0.0925774,Cluster1
late,-1.6957334,-1.244898,Cluster1
immedi,-1.1289089,-0.24938142,Cluster1
architectur,-1.4283668,-0.7493646,Cluster1
rapid,-0.77949613,-1.3170679,Cluster1
get,-1.0693841,-2.4027576,Cluster1
patchwork,-0.6240052,-1.4942062,Cluster1
nich,0.20924729,-1.4877048,Cluster1
e,-0.59272516,-1.2023646,Cluster1
object,-0.36168444,-1.4742701,Cluster1
driven,0.0040750504,-0.11629552,Cluster1
selfhood,0.15103793,-1.5477493,Cluster1
number,-0.27566147,-1.4904737,Cluster1
perform,-0.6249915,-2.7461963,Cluster1
predat,-0.31574595,-0.77976865,Cluster1
never,-1.5222332,1.1720932,Noise
updat,-0.10653591,-0.0018701553,Cluster1
determin,-0.47098932,-0.6609231,Cluster1
compos,-2.0882854,-1.5908656,Cluster1
scaffold,-0.57127285,-0.91099244,Cluster1
bodi,-0.67325956,-0.40694714,Cluster1
meaning,0.45909756,-0.6702564,Cluster1
ground,-0.83832735,-1.7444422,Cluster1
ongo,-0.9240723,-0.47551203,Cluster1
strict,0.1550231,-1.1874646,Cluster1
econom,-1.1773651,-1.138673,Cluster1
depth,-0.407165,-0.11006856,Cluster1
domain,0.018223882,-0.91187596,Cluster1
toward,-0.8141679,-1.0922464,Cluster1
job,-1.0905422,-0.8095962,Cluster1
interrel,-2.25227,-0.543241,Cluster1
analysi,-1.9140978,-2.5650778,Noise
maxim,0.22007221,-1.2579684,Cluster1
narrat,-0.81743455,-0.49231976,Cluster1
well,-0.18880248,-1.5088823,Cluster1
adapt,-0.4474029,-1.4285312,Cluster1
like,-0.7099146,-0.4156105,Cluster1
notion,0.63140947,-0.28413695,Cluster1
conflict,-0.0933764,-1.8285177,Cluster1
total,-1.7311982,-0.7163596,Cluster1
tentat,-0.7406722,-0.45336267,Cluster1
might,-1.4388121,-0.67905664,Cluster1
privileg,0.9149203,-0.82940567,Cluster1
correspond,-0.8072192,-1.4841496,Cluster1
reproduct,-0.7469727,-0.938557,Cluster1
phrase,-0.48604152,-1.3480344,Cluster1
reflex,-0.10905069,-1.9165914,Cluster1
softwar,-0.88500243,-0.46504238,Cluster1
mechan,-1.2036027,-2.0287871,Cluster1
causal,-0.2613848,-0.3464779,Cluster1
expect,-0.13532132,-0.99002415,Cluster1
eye,-0.042146623,-0.14004248,Cluster1
special,-0.5125736,-1.4156747,Cluster1
manag,-1.1096642,-1.7974715,Cluster1
world,-0.7510294,-1.216107,Cluster1
communiti,-1.2329528,-1.7066512,Cluster1
oper,-0.78297967,-1.5680916,Cluster1
structur,-1.0298284,-0.15051842,Cluster1
across,-0.10853124,-1.253026,Cluster1
direct,-0.1340034,-0.5801778,Cluster1
hour,-0.39863852,-0.37085375,Cluster1
sens,0.3145792,-1.0918357,Cluster1
speak,-0.60967517,-1.5818876,Cluster1
failur,-1.3689461,-0.6135984,Cluster1
therefor,-0.030942202,-1.0877684,Cluster1
finger,-1.7161335,0.14048594,Cluster1
last,-0.5392077,-0.23932433,Cluster1
infinit,-1.6627822,-1.8777993,Cluster1
will,-0.9753587,-2.4120407,Cluster1
survey,-1.7910068,-0.8456596,Cluster1
ration,-0.7858307,-1.1443391,Cluster1
judgement,-0.670534,-1.1973156,Cluster1
human_intellig,-0.17549324,-1.3918484,Cluster1
wide,-0.16515708,-0.9441332,Cluster1
reason,-0.40235254,-1.316193,Cluster1
noth,-0.2374199,-1.537766,Cluster1
detect,-1.0367116,-0.8999908,Cluster1
conscious,-0.64573073,-0.94434834,Cluster1
invent,-0.32996982,-1.526083,Cluster1
basi,-0.7841907,-0.7307548,Cluster1
everyday,-2.1106925,-1.0582271,Cluster1
accident,-0.9572997,0.030504882,Cluster1
meet,-1.1913682,-2.1887872,Cluster1
eleph,-0.7952784,-0.48720002,Cluster1
group,-0.6704278,-1.7689667,Cluster1
concert,0.5684727,-0.5309893,Cluster1
talk,-0.67463076,-0.95440674,Cluster1
autonomi,-0.6261391,-1.243488,Cluster1
sapien,-0.68983644,0.80386096,Cluster1
procedur,-0.5423377,-1.9470215,Cluster1
wider,-0.7506992,-1.9812725,Cluster1
wire,-0.76979756,-1.08726,Cluster1
angri,-0.4344522,-0.7061649,Cluster1
sub,0.28422862,-0.8782774,Cluster1
platform,-0.7709942,-0.961719,Cluster1
show,-0.5635108,-1.8765049,Cluster1
also,-0.648589,-1.0929176,Cluster1
mental,-0.5647316,-0.8619499,Cluster1
respond,-1.3670892,-1.1212816,Cluster1
yet,-0.5575118,-0.2612511,Cluster1
seek,-2.1592288,-0.95615137,Cluster1
indirect,-0.39118287,-0.6124244,Cluster1
creativ,-1.1055303,-1.0277236,Cluster1
emerg,-0.66800845,-0.7207583,Cluster1
equat,-1.1321176,-1.1058948,Cluster1
greater,-1.7316047,-1.8025439,Cluster1
format,-1.5735114,-0.31752706,Cluster1
dimension,0.47974104,-0.5568651,Cluster1
environment,-0.3626075,-1.3055876,Cluster1
deep,-1.1000147,-1.0644165,Cluster1
explain,-0.8808352,-1.6473279,Cluster1
rate,-0.108588755,-1.5352143,Cluster1
expertis,-0.49184477,-1.0737604,Cluster1
impli,-1.5902267,-0.22160196,Cluster1
much,-0.65114987,-1.312206,Cluster1
likewis,-0.34719083,-0.12660956,Cluster1
togeth,-0.9072342,-0.09760642,Cluster1
requir,-0.073144674,-1.4610339,Cluster1
evolut,-0.14820057,-1.5044461,Cluster1
refer,-0.115175486,-0.95959467,Cluster1
preserv,-0.7969521,-0.8590962,Cluster1
success,-0.48199803,-1.4475843,Cluster1
protect,-1.400298,-1.0928485,Cluster1
gist,-1.2697428,0.17301548,Cluster1
goal,-0.5685351,-1.1881462,Cluster1
cost,0.060009837,-0.83950907,Cluster1
repeat,-0.6628624,-0.36609936,Cluster1
consolid,-1.9802606,-2.1108882,Cluster1
extend,-0.06916505,-1.5698481,Cluster1
nub,-0.1656031,-0.22944617,Cluster1
decis,0.4631458,-1.3502167,Cluster1
hit,0.37728328,-1.4062109,Cluster1
storytel,0.023300469,-0.9081928,Cluster1
real,0.4648766,-1.2936239,Cluster1
find,-0.32333022,-0.9111483,Cluster1
hungri,-0.6163124,-0.9194527,Cluster1
would,0.053041995,-1.1012523,Cluster1
capac,-0.21503711,-1.5535392,Cluster1
appear,-2.7033794,0.61338216,Noise
competit,-1.3611832,-1.5575317,Cluster1
stupid,0.0117256045,-0.8619442,Cluster1
memori,-0.5272795,-0.98221654,Cluster1
model,-0.7468122,-1.310584,Cluster1
lifetim,-0.8844112,-0.079405844,Cluster1
challeng,-0.9215185,-1.0626276,Cluster1
along,-0.04911691,-0.44777668,Cluster1
individu,-0.5981948,-1.1370509,Cluster1
behav,-0.7729617,-0.6968339,Cluster1
consequ,0.23062176,-1.6900127,Cluster1
deduct,-1.638134,-1.3634706,Cluster1
interact,-0.6187001,-1.3330417,Cluster1
criteria,-0.80407226,-0.9899709,Cluster1
speci,-1.3257926,-1.1305189,Cluster1
strength,-1.3761954,-1.8269396,Cluster1
dictat,-1.4488266,-0.9827285,Cluster1
figur,-0.17903316,-0.17274493,Cluster1
multitud,-0.92470706,-0.8317665,Cluster1
thing,-0.013104737,-0.6557194,Cluster1
littl,-2.505515,-0.386616,Cluster1
us,-0.38653767,-1.5150161,Cluster1
potenti,-0.2316562,-1.1159804,Cluster1
exform,-0.9927258,-1.5760982,Cluster1
valu,-1.249191,-1.6181452,Cluster1
thumb,0.36363572,-1.7210257,Cluster1
deal,-1.3282046,-1.6026788,Cluster1
among,-1.6525526,-1.026798,Cluster1
independ,-0.8758303,-0.9807987,Cluster1
problem,0.122787714,-1.5316017,Cluster1
make,0.42969376,-0.900832,Cluster1
inner,-1.7714372,-1.7516346,Cluster1
abil,-0.114138186,-1.605089,Cluster1
strong,-0.4019363,-1.8168778,Cluster1
imagin,0.3315454,-1.0454475,Cluster1
reaction,-0.6402035,-1.8446863,Cluster1
state,-3.933386,-0.91745913,Noise
root,-0.8001721,-2.4143486,Cluster1
characteris,-0.49701998,-1.3371816,Cluster1
conclus,-2.2485914,-0.72796476,Cluster1
anim,-0.49444613,-1.5114369,Cluster1
descript,-0.3850076,-1.4023666,Cluster1
multipl,-0.060006857,-0.8772617,Cluster1
symbiosi,-0.20811135,-2.4686704,Noise
elabor,-0.1167655,-0.38560164,Cluster1
rear,-0.35443512,-0.8310171,Cluster1
autonom,0.04841906,-1.8391459,Cluster1
contradict,-0.41539684,-0.919899,Cluster1
properti,-1.0705278,-0.87132406,Cluster1
famili,-0.8371419,-0.6297728,Cluster1
small,-0.60964453,-0.46331164,Cluster1
give,-0.7449326,-1.7814338,Cluster1
solut,-1.0096738,-1.1914791,Cluster1
two,-1.7094718,-1.5707415,Cluster1
may,-0.91552854,-1.175142,Cluster1
physic,-0.4781149,-0.777752,Cluster1
specif,0.2770949,-1.477384,Cluster1
instanti,-0.22529566,-0.713554,Cluster1
involv,-0.29028922,0.3997783,Cluster1
relev,-1.2907786,-0.93256354,Cluster1
home,-0.98212373,-1.178452,Cluster1
scale,0.4890414,-1.1653717,Cluster1
oppos,-0.70520586,-1.4862044,Cluster1
mani,-0.10806644,-0.8552545,Cluster1
univers,-0.31385845,-0.5322363,Cluster1
recess,-0.21593845,-1.2423306,Cluster1
plant,0.30725986,-1.5292585,Cluster1
mention,-2.4359753,-1.9898543,Noise
limit,-0.2734449,-1.1988182,Cluster1
surround,-0.19003886,0.27682883,Cluster1
phenomenon,-1.8913066,-1.3454407,Cluster1
outcom,-0.957865,-1.4414191,Cluster1
motiv,-0.6385411,-1.9720998,Cluster1
ego,0.27068788,-0.7440621,Cluster1
deviat,-0.8721508,-0.23077464,Cluster1
unknown,-1.4694998,-0.22740835,Cluster1
featur,-1.4971288,-0.8419431,Cluster1
surviv,-1.1256227,-0.78681856,Cluster1
desir,-0.7443781,-1.394954,Cluster1
rationalis,-1.9178474,-1.3379748,Cluster1
succeed,-1.1742625,0.78470606,Noise
human,-0.41450635,-1.2482834,Cluster1
hear,-0.4163067,0.13675505,Cluster1
current,0.1623106,-1.522209,Cluster1
creation,-0.6115834,-1.6334782,Cluster1
incorpor,-2.6806352,0.5886397,Noise
mathemat,0.46709567,-0.14923376,Cluster1
appli,-0.9163629,-0.58687454,Cluster1
quantiti,-0.7042574,-0.9375363,Cluster1
due,-0.32883605,-0.2079457,Cluster1
extran,-0.5102209,-0.9573695,Cluster1
teacher,-0.8281521,-1.3226442,Cluster1
employ,-0.8422151,0.48593765,Cluster1
admir,-1.6941425,-0.14536804,Cluster1
ratio,0.8366317,-0.9121793,Cluster1
disconnect,-0.5678724,-1.1471155,Cluster1
qualit,-1.8018613,-0.26283795,Cluster1
tri,-0.87510586,-1.2451273,Cluster1
law,-1.1383097,-0.9397469,Cluster1
virtu,-0.6296561,0.47701257,Cluster1
environ,-0.1957975,-1.1521789,Cluster1
first,-0.10744488,0.52971584,Cluster1
composit,-1.5699914,-1.1408117,Cluster1
predict,-0.23744822,-1.2762439,Cluster1
emot,0.010260463,-1.211046,Cluster1
drive,-1.6899397,-1.0272365,Cluster1
devis,-1.108644,-1.2797532,Cluster1
choos,-1.6167047,-2.0080242,Cluster1
constrain,-1.2861809,-1.0549064,Cluster1
item,-1.0957258,-0.936104,Cluster1
amort,-1.2211764,-0.9029853,Cluster1
import,-0.7706977,-0.5924927,Cluster1
develop,-0.34961718,-1.2300781,Cluster1
differ,-0.46880883,-1.2080519,Cluster1
chunk,0.04168433,-0.5867316,Cluster1
de,-0.70095986,-1.1682091,Cluster1
combin,-0.77145916,-1.0760167,Cluster1
categori,-0.99456763,-1.6132406,Cluster1
far,-0.11196089,-1.0061016,Cluster1
fabric,-0.00075256824,-1.6547146,Cluster1
produc,0.7925897,-0.7376871,Cluster1
guid,-0.23141545,-0.6055712,Cluster1
reliabl,-1.3292141,-0.3900993,Cluster1
impress,-1.7687606,-1.3222727,Cluster1
alloc,-0.38725108,-1.3661951,Cluster1
societi,-0.96884924,-0.0469594,Cluster1
happen,-1.1328541,-1.2960985,Cluster1
way,-0.23180544,-1.3366446,Cluster1
under,-0.2658555,-0.87500036,Cluster1
achiev,-0.9704359,-1.4995118,Cluster1
uncertainti,-0.15460032,0.117851436,Cluster1
least,0.18106335,-1.8103571,Cluster1
reinforc,-2.2091405,-1.9066842,Noise
orient,-1.4313779,-1.0960381,Cluster1
enabl,-0.9956262,-1.0382923,Cluster1
ill,-2.2168047,-0.27567673,Cluster1
terminolog,-0.5683566,-1.7786477,Cluster1
novo,0.68538374,-0.3428297,Cluster1
constraint,0.29882437,-1.9548528,Cluster1
optimum,-1.1404853,-1.0281745,Cluster1
account,-0.21906912,-1.6064787,Cluster1
mind,-0.11729598,0.09530383,Cluster1
expetis,-0.37249506,-0.58637005,Cluster1
run,-0.5520822,-0.98912525,Cluster1
link,-0.68256307,-0.6662053,Cluster1
sum,-1.138882,0.29373342,Cluster1
walk,-1.8831177,-1.2164185,Cluster1
see,-0.6486629,-1.35267,Cluster1
mean,-0.5637085,-0.84907836,Cluster1
method,-1.0359093,-1.5437238,Cluster1
practic,-0.64102787,-2.4009385,Cluster1
without,-1.1041719,-1.1381472,Cluster1
essenti,-0.37967762,0.24056584,Cluster1
varieti,-0.89884204,-0.8611288,Cluster1
execut,-2.3135564,-0.60401326,Cluster1
norretrand,0.6710517,-0.43816233,Cluster1
societ,-0.9297314,-0.18637544,Cluster1
necessarili,-1.4306548,-1.628308,Cluster1
intent,-0.11815953,-0.45295092,Cluster1
meta,-0.81568915,-1.0996096,Cluster1
maximis,-0.83572775,-2.219255,Cluster1
synthesis,-2.581682,-0.70674074,Cluster1
approach,1.6705627,-1.2122669,Noise
abl,-0.6278379,-1.3616979,Cluster1
often,-1.4321096,-1.7486212,Cluster1
divers,-0.7440649,-1.4204156,Cluster1
input,-1.4495008,-0.8071717,Cluster1
studi,-0.32177514,-1.3937542,Cluster1
induct,-1.0769088,-0.67244065,Cluster1
display,-0.8893532,-1.6497452,Cluster1
space,0.6465712,-1.628897,Cluster1
data,-0.6222589,-1.2833456,Cluster1
held,-0.5624679,-1.1182514,Cluster1
undistinguish,-0.8801493,-2.5960453,Cluster1
sure,-1.5888803,0.10167462,Cluster1
constant,-0.5657364,1.5230327,Noise
etc,-0.57249033,-1.1033825,Cluster1
contain,1.141413,-1.4938188,Noise
overal,0.047601342,-1.3257794,Cluster1
swift,-0.008860886,-1.1271609,Cluster1
heritag,-0.34523124,-0.05688119,Cluster1
belief,-0.07571018,-1.2647582,Cluster1
control,-0.4787804,-2.9280794,Noise
array,-1.0004832,-1.2618471,Cluster1
perhap,-1.7565243,-0.09335458,Cluster1
consist,-0.57779473,-2.1446242,Cluster1
synthet,-0.5681578,-0.22892213,Cluster1
context,-0.12144476,-1.122863,Cluster1
improv,-0.1329341,-1.0692062,Cluster1
slight,-0.5743519,-1.8247731,Cluster1
film,0.044556558,-2.4060965,Noise
around,-0.6971271,-1.3422056,Cluster1
progress,-0.082442164,-0.055460572,Cluster1
read,0.6652897,-1.0257679,Cluster1
futur,-1.0386136,-1.435889,Cluster1
store,-1.6563569,-1.0051605,Cluster1
take,-0.5362004,-1.4678996,Cluster1
reach,-1.0174404,-1.3504746,Cluster1
relat,-0.8867872,-1.03952,Cluster1
work,0.2498756,-0.8413579,Cluster1
aka,-1.1041704,-1.3222172,Cluster1
crux,-0.7194934,-0.64601904,Cluster1
common,-0.49627918,-1.1128383,Cluster1
art,-0.49642372,-0.8966321,Cluster1
generat,-0.9966736,-0.7694268,Cluster1
desicion,-0.6848997,-0.12899917,Cluster1
intern,-0.2499674,-1.1546953,Cluster1
incomplet,-0.012427449,1.3353124,Noise
gather,-0.49724928,-1.5513251,Cluster1
development,-2.7057452,-0.9206709,Cluster1
opportun,-0.13318223,-1.1872758,Cluster1
test,-0.02932167,-1.0910997,Cluster1
extrem,-1.5025426,-0.6523167,Cluster1
team,-0.96406853,-0.91562617,Cluster1
better,-1.3665605,-1.0733374,Cluster1
physiolog,0.058686256,-0.5665902,Cluster1
recurs,-1.2472069,-0.8098195,Cluster1
even,-0.6478793,-0.88630366,Cluster1
dimens,-0.28308517,-0.8893093,Cluster1
care,-1.2017508,-0.49157497,Cluster1
subsystem,-0.1469326,-1.4836395,Cluster1
principl,-0.94031394,-0.022799492,Cluster1
infer,-0.98119634,-0.617606,Cluster1
ecosystem,-1.9372001,-1.7192864,Cluster1
obtain,0.12194097,-0.086177945,Cluster1
level,-0.25437033,-1.6709285,Cluster1
carri,-0.85925305,-1.3785698,Cluster1
locomot,-0.03769535,-0.39632908,Cluster1
intellectu,-0.7399416,-1.3786271,Cluster1
charg,-0.99986404,0.32015437,Cluster1
standard,-0.18474299,-2.3438418,Noise
analogu,-1.1123009,-0.8226735,Cluster1
sometim,-0.43324003,-0.8499807,Cluster1
concret,-0.29171157,-0.98567665,Cluster1
linguist,-1.03527,-0.8665916,Cluster1
function,-0.8942691,-1.136209,Cluster1
construct,-1.8848853,-1.7720714,Cluster1
isol,-0.46795624,0.031000495,Cluster1
use,-0.025211692,-1.104717,Cluster1
definit,-0.38353243,-1.1089904,Cluster1
plan,-0.2773754,-1.5099621,Cluster1
call,-1.2143351,-0.32490367,Cluster1
represent,-1.5188811,-1.0523062,Cluster1
reflect,-0.042305768,-1.2432033,Cluster1
higher,-0.89291364,-1.4015056,Cluster1
maintain,0.20618647,-1.2332115,Cluster1
less,0.15126878,-1.5279961,Cluster1
innat,-0.9077634,-1.2030448,Cluster1
entiti,0.3559131,-1.0094944,Cluster1
judgment,-1.5149857,-0.95329577,Cluster1
reveal,-0.25990492,-0.5695373,Cluster1
larger,-1.3100762,-2.0642369,Cluster1
embodi,-1.0831556,-1.1393169,Cluster1
time,-0.3007123,-1.160472,Cluster1
charact,-1.0873532,-1.1030293,Cluster1
alway,-0.5491512,-0.6675744,Cluster1
percept,-0.075651824,-1.3786261,Cluster1
e_g,-1.1292927,-1.2284948,Cluster1
magnet,-0.123129666,0.3444392,Cluster1
util,1.1221251,-0.5496466,Noise
coevolv,-1.1778554,-0.4420129,Cluster1
stem,0.16030228,-1.7751627,Cluster1
tire,-1.670626,0.1712693,Cluster1
instinct,-1.0354469,-0.54886055,Cluster1
arguabl,-1.3682024,-0.07193643,Cluster1
respons,-0.9730181,-0.7264794,Cluster1
learn,-0.17612398,-1.3912126,Cluster1
end,-1.5087063,-1.1472198,Cluster1
suitcas,-0.9332,-1.1642368,Cluster1
uniqu,0.22881597,-1.7914009,Cluster1
bull,0.6951261,-0.30697548,Cluster1
insight,-2.4731743,-0.6570023,Cluster1
sound,0.013511002,0.88804096,Noise
exercis,-0.41768837,-1.5260713,Cluster1
think,-0.662132,-1.2770901,Cluster1
select,-1.3656404,-1.1489979,Cluster1
region,0.72411793,-0.9827198,Cluster1
signal,-0.2284267,0.40638238,Cluster1
say,-1.4541883,-0.058036566,Cluster1
month,-0.8845203,0.22764462,Cluster1
crucial,-0.48314312,-1.0867193,Cluster1
quick,0.051256,-0.5760672,Cluster1
intrus,-1.0733057,-0.7510897,Cluster1
comput,-1.8610246,-1.3885406,Cluster1
intellig,-0.1444447,-1.2134149,Cluster1
evolutionari,-0.92777306,-1.4492593,Cluster1
popularis,-0.744903,-1.5530725,Cluster1
signific,-0.687274,-1.0693121,Cluster1
receiv,-0.783183,0.71713203,Cluster1
differenti,-0.774528,0.42709404,Cluster1
quantit,-0.1726979,-0.39147115,Cluster1
acceler,-0.4576966,-0.07291138,Cluster1
cover,-1.2743154,-1.3743994,Cluster1
natur,-0.11967182,-1.353445,Cluster1
come,-1.4645011,-1.6418102,Cluster1
anoth,0.18103546,-0.10795373,Cluster1
someth,0.32495922,-0.57617426,Cluster1
math,0.9025944,-1.409352,Noise
daili,-1.7297436,-0.16658229,Cluster1
basic,-1.8913713,-0.13151222,Cluster1
path,-1.0210027,-0.7598292,Cluster1
juggl,-1.041691,-1.3155524,Cluster1
experiment,0.5444301,-1.7663443,Cluster1
clever,-2.2204132,-0.689217,Cluster1
realiti,-0.7135434,-1.1339397,Cluster1
insuffici,-2.1613405,-1.5712898,Cluster1
exhibit,-0.23775768,-1.5391202,Cluster1
compar,-0.85019386,-0.5013989,Cluster1
attent,0.00649333,-0.8031494,Cluster1
mix,0.0942384,0.121485114,Cluster1
respect,-0.8932481,-0.85813147,Cluster1
enhanc,-1.3387663,-0.8822446,Cluster1
inform,-0.28805864,-1.0386698,Cluster1
aspect,-0.6696111,-0.43166372,Cluster1
imprecis,-1.6128643,-1.6522038,Cluster1
concept,-0.4849465,-1.1894672,Cluster1
whatev,-2.23813,-0.118743956,Cluster1
clear,-0.60936517,-2.198132,Cluster1
extern,-1.0889467,0.6447032,Cluster1
singl,-1.7062523,-0.5739558,Cluster1
purpos,-0.44764444,-1.2144449,Cluster1
best,-1.2845699,-0.4279672,Cluster1
creator,-1.3789432,-1.3637009,Cluster1
situat,-0.664589,-0.740742,Cluster1
previous,-0.15847224,-1.1031771,Cluster1
evolv,-0.06291616,-1.5518517,Cluster1
scheme,-0.71175736,-1.712564,Cluster1
perceiv,-0.46359038,-1.6732476,Cluster1
understand,-0.4932071,-1.6724325,Cluster1
modal,0.59038407,-1.5563331,Cluster1
logic,-0.41150427,-0.68688357,Cluster1
freedom,-1.0811421,-0.07428473,Cluster1
type,-0.89408827,-0.60404086,Cluster1
comprehend,-1.6933787,0.4346822,Cluster1
flexibl,-0.060892284,-0.8676374,Cluster1
host,-0.8095598,-1.082623,Cluster1
creatur,-0.4576662,-1.4072729,Cluster1
thought,-0.2329644,-0.48604137,Cluster1
