word,x,y,z,cluster
engin,-0.26431012,-1.4924957,-1.5362756,Cluster1
spot,0.22203755,-1.4533222,-0.41937226,Noise
plausibl,-0.6073272,-0.4319943,-0.77173233,Cluster1
domin,-0.7440124,-1.005694,-1.135032,Cluster1
compon,-0.42140117,-0.23308367,-0.5853615,Cluster1
necessari,-0.540414,-0.26586848,-0.16969007,Cluster1
aggreg,0.10038638,-1.2402376,-0.9095434,Cluster1
revisit,-1.8164033,-0.89566493,-1.0727127,Cluster1
underlin,0.30141783,-3.3716393,-0.9378172,Noise
chang,-1.4129031,-0.75711936,-0.17502642,Cluster1
part,-0.37034288,-0.9237379,-0.654269,Cluster1
add,-0.8256776,-1.0678093,0.13909447,Cluster1
instanc,-0.6557971,0.50377977,-1.0435212,Cluster1
abduct,-1.1896436,-1.7243984,-1.0534401,Cluster1
leverag,-1.1593468,-1.0034963,-0.0952574,Cluster1
written,-2.0450108,0.07870585,0.42866945,Noise
continuum,-0.5714292,0.26883066,-1.1550354,Cluster1
general,-1.2471502,-0.750306,-1.415221,Cluster1
metaphor,0.09825611,-0.5810443,-0.7871452,Cluster1
threshold,-0.738463,-0.92485523,-0.09719771,Cluster1
coordin,-2.0451987,0.7255987,-0.5501209,Noise
pleasur,-1.7771711,-0.7592073,-1.5812175,Noise
unit,-0.41116604,-0.5418291,-1.3451875,Cluster1
task,-0.6121122,-1.5129673,-0.59603375,Cluster1
form,-0.856693,-0.85721123,-0.722986,Cluster1
sensor,-0.5589119,-0.94432133,-1.9726678,Cluster1
essenc,-0.41117817,-0.103094816,-0.6744101,Cluster1
action,-1.1127266,-0.7856334,-0.66653633,Cluster1
exist,-0.00087744,-0.22775483,-0.74174327,Cluster1
languag,-0.53609747,-0.751508,-0.73025036,Cluster1
attempt,1.0803916,-0.45486498,0.13931406,Noise
alreadi,-1.7230936,-1.9839109,-1.2183096,Noise
ant,0.20952713,-0.5744592,-0.73125917,Cluster1
analyz,-1.071877,-1.2436486,-3.1520772,Noise
tool,-1.4482636,-0.9819526,-1.2837161,Cluster1
attribut,-1.0340465,-0.78683484,-1.1190879,Cluster1
tend,0.25595105,-1.0342922,-0.34769377,Noise
either,-1.1146132,0.082805514,0.4267038,Cluster1
behavior,-0.99892646,-0.51083267,-1.0222324,Cluster1
artifici_intellig,-0.92968905,0.124593854,-0.6252297,Cluster1
patholog,-0.1370517,-1.479645,-1.6432171,Cluster1
fit,-1.0557306,-0.310626,0.16892868,Cluster1
epiphenomenon,0.23205304,-1.5732343,-1.480129,Cluster1
speed,-0.5611367,0.19368285,-1.0016716,Cluster1
strike,-0.32349724,-1.2254851,0.33768797,Noise
base,-1.1243019,0.12828988,-1.2111905,Cluster1
act,-1.276728,-0.5213138,-0.66791606,Cluster1
output,-0.3517482,-0.53937495,-1.2922359,Cluster1
implement,-1.0040323,-1.9142474,-0.79514176,Cluster1
long,-0.35285947,-0.88254297,-0.5365856,Cluster1
provid,-1.540786,-0.32569295,-0.62959445,Cluster1
smart,-0.5955814,-1.4744718,-1.3711574,Cluster1
error,-0.09517771,-1.1077809,-1.2839135,Cluster1
rang,-1.524284,-0.038090765,-0.3876784,Cluster1
put,-1.024656,0.5662596,-2.112165,Noise
investig,-1.1444573,-1.8227077,0.100642085,Noise
entir,-1.6596398,-1.1302866,0.4123112,Noise
capabl,-1.2718585,-0.7618771,-1.0320818,Cluster1
outer,-0.27699834,-1.8701574,-0.10984707,Cluster1
generalis,-0.22349125,-1.2516316,-1.5269159,Cluster1
dynam,-1.2569096,-0.58186424,-0.72182065,Cluster1
distinguish,-1.9095504,0.18667471,-0.8854338,Cluster1
recogn,-0.8492886,-0.984855,-0.096838236,Cluster1
priori,-0.49026868,-1.2041962,-0.7572403,Cluster1
judg,-0.55239564,-1.8763995,-0.12702256,Cluster1
describ,-1.8132534,0.14428788,-1.8613466,Noise
interpret,-1.0150535,-1.3127695,-0.063969314,Cluster1
good,-1.2840283,-1.2970407,0.6653298,Noise
prior,-0.28721687,-0.13063943,-0.87058496,Cluster1
face,-0.90783566,-0.5894166,-0.6193783,Cluster1
rather,-0.8386383,-0.42779413,-0.4521087,Cluster1
degre,-0.40792683,-0.49324125,-0.94043577,Cluster1
creat,-1.1569476,-0.7571704,-0.96603686,Cluster1
measur,-0.15345228,-0.8154711,-1.312907,Cluster1
lifespan,-0.26552224,-0.40273255,-1.7530634,Cluster1
theori,-1.4236876,-0.1697529,-0.57779795,Cluster1
shape,-0.36977556,0.15915293,-0.10754794,Cluster1
histori,0.41277015,-0.3537879,-0.61288404,Cluster1
imit,0.5798514,-1.2210519,-1.4036975,Noise
includ,-1.112596,-0.964352,-1.1366212,Cluster1
close,-1.1948735,-0.43981296,-1.4339484,Cluster1
teach,-0.454629,0.11533433,-0.3742122,Cluster1
avail,-0.7802458,-1.456865,-1.4042814,Cluster1
arriv,-1.2995938,-1.8350698,0.13538319,Noise
user,-0.35942623,-1.7272937,-1.9648402,Noise
keep,-0.59238034,-0.45616442,-1.4374187,Cluster1
exampl,-0.2731787,-0.031962812,0.3496071,Noise
shortcut,-1.2251983,-0.1314807,-1.0585701,Cluster1
obstacl,-1.2481387,-0.78453654,-1.3530431,Cluster1
sustain,-1.0327141,-0.9968906,-0.79438794,Cluster1
rule,-0.98262924,-0.04933089,-1.3140488,Cluster1
hardwir,-0.051543295,-1.904718,-1.1208364,Noise
els,0.19847888,0.47071528,-1.3336272,Noise
grant,0.40968692,1.3056427,0.025752783,Noise
count,-0.17931062,-2.2398374,-1.2838362,Noise
hedg,-1.2328315,-1.0578966,-0.83143103,Cluster1
scenario,-0.9402637,-0.21969122,0.14220989,Cluster1
defin,-1.149714,-0.42756346,-1.0057054,Cluster1
past,-0.77064735,-0.83375627,-1.2736666,Cluster1
collect,-1.3072124,-1.8161694,-1.2752854,Cluster1
be,-1.761136,-0.42637753,-0.25540948,Cluster1
behaviour,-1.4497826,-1.1102355,-0.3343076,Cluster1
equal,0.98077404,-0.61296797,-1.568208,Noise
lot,-0.24136001,-0.6990478,-0.4021318,Cluster1
field,-1.6298547,-0.55457973,-1.066351,Cluster1
must,-1.4500071,-0.22966129,-0.0417794,Cluster1
minim,-1.1076196,-1.4961555,-0.732224,Cluster1
mass,-0.84703934,-0.93842703,-0.41290984,Cluster1
short,-0.56040454,-0.8541036,-0.7244159,Cluster1
reward,-0.75547934,-1.198093,-0.08455181,Cluster1
unalt,-1.9275186,-0.58872163,-1.6978118,Noise
term,-0.57339936,-0.60628057,-0.7314349,Cluster1
facil,-1.0018669,0.31569827,-0.8339734,Cluster1
deeper,-0.50615275,-1.6349666,-0.14833063,Cluster1
consid,-1.3575891,-0.24655157,-0.53985447,Cluster1
clarifi,-0.9773811,-2.68158,-0.58818245,Noise
case,-0.14868951,0.027314305,-1.1446744,Cluster1
possibl,-0.6067767,-0.66210777,-0.7794227,Cluster1
could,-0.65553457,-0.96081954,-0.15888017,Cluster1
abstract,-1.2414255,-0.34818444,-0.62338394,Cluster1
circumst,-1.028832,-0.023447156,0.97219026,Noise
analog,-0.98021096,-0.9083217,-0.2847559,Cluster1
highest,-0.08704227,0.08957636,-0.33907482,Noise
activ,-0.6773323,-0.22705674,-1.5182517,Cluster1
guidanc,-1.4432544,-1.0946414,-1.0703913,Cluster1
ontolog,-0.5623103,-1.3352702,-1.477321,Cluster1
adequ,-1.561427,-0.78794205,-0.17900938,Cluster1
random,0.20964348,-1.7441993,-1.413098,Noise
solv,-1.3659277,-0.39681163,-1.1666927,Cluster1
subgoal,-0.9030047,-0.88183635,-0.5034814,Cluster1
inher,-0.8470073,-0.7882828,-1.7838674,Cluster1
optim,-0.9718704,-0.39593017,-0.108839154,Cluster1
memor,-1.7284794,-1.6390945,-0.50220025,Noise
rank,0.36159062,-2.3961768,-0.9716012,Noise
need,-1.0339912,-0.94950974,-0.6419053,Cluster1
known,-0.18606657,-0.8415518,-1.1552842,Cluster1
within,-1.3940971,-1.1317254,-0.3557648,Cluster1
acquisit,-0.7294221,-0.28035513,0.13853872,Cluster1
rememb,-0.71124804,-0.03147608,-1.25126,Cluster1
manner,0.21253538,-1.4166335,-0.86780703,Cluster1
broad,-1.2995528,-0.2650199,-0.9639012,Cluster1
one,-0.81603974,-0.78791064,-0.59224236,Cluster1
given,-1.3885045,-1.0736489,-0.33533368,Cluster1
skill,-1.313151,-1.1857861,-0.7899702,Cluster1
emul,-3.5783086,-0.605943,-0.0062140822,Noise
analyt,-0.1945337,-0.86098766,-0.6781421,Cluster1
various,-0.17800301,-0.3882053,-1.2867657,Cluster1
typic,0.156461,-0.058093965,-0.7491982,Cluster1
accomplish,-1.1623201,0.31826615,-2.4842267,Noise
darwinian,-2.5254264,-0.28572655,0.6150259,Noise
cognit,-0.9348465,-0.5413231,-0.5973529,Cluster1
anticipatori,-2.099699,-0.22003436,-1.037489,Noise
multi,-0.24048263,-1.6403108,-1.5066481,Cluster1
experi,-0.83684456,-0.33526167,-1.1575722,Cluster1
octopus,-0.13929152,-0.53884435,-0.6473178,Cluster1
proper,-1.2826266,-0.8189175,-1.4899236,Cluster1
know,-1.0659744,0.34180367,-1.880395,Noise
factor,-2.7852669,0.75166106,-1.0138425,Noise
qualiti,-0.8176666,-0.63907677,-1.0323943,Cluster1
characterist,-1.0992444,0.3225808,-1.5056067,Noise
hard,-1.8560382,-1.6496325,-1.0177058,Noise
concern,-1.0829942,0.72938466,-0.0058860183,Noise
integr,-0.78487587,-0.326679,-1.843567,Cluster1
c,-0.89803874,-0.8439466,-0.5549088,Cluster1
increas,-0.61806697,-0.42157474,-0.8369196,Cluster1
b,-0.67849267,-0.7483151,-0.8435793,Cluster1
retain,-0.7468131,-0.72438264,-1.3506705,Cluster1
engag,-0.4861848,-0.006157756,-0.42666242,Cluster1
hypothes,-1.2441716,1.1139795,-0.4434729,Noise
catch,-1.2375321,0.20187795,-0.024085164,Noise
dolphin,-1.076993,0.23964679,-0.79659975,Cluster1
occur,-0.29738483,-2.6211257,0.105675936,Noise
machin_intellig,-0.6364389,-0.7140105,-1.0050229,Cluster1
other,-1.026973,-0.2835273,-0.6087609,Cluster1
strategi,-1.5403748,-0.12028414,0.39861035,Noise
broader,-0.34350467,-0.25265586,-0.5623946,Cluster1
order,-0.7853196,-0.4322907,-0.5764034,Cluster1
decomposit,0.18642586,-0.4308457,-0.8988733,Cluster1
whether,0.2528088,-0.05860591,-0.7682624,Cluster1
foreseen,-0.4418082,-0.77102613,0.4338075,Noise
organ,-0.56174624,-0.6018444,-1.2778239,Cluster1
symbol,-1.5610192,-0.29329687,-0.91795534,Cluster1
persuad,-0.79705936,-1.2314297,-0.4301371,Cluster1
empathi,-1.11864,-0.34227395,-1.2503173,Cluster1
result,-0.7363911,-0.91810584,-1.5711012,Cluster1
unitari,-0.8065033,-1.2122065,-2.213148,Cluster2
self,-0.69734174,-0.6475476,-1.280735,Cluster1
whole,-2.0366664,0.61577094,0.27356434,Noise
imperfect,-0.63545173,-0.7354184,-1.9915724,Cluster1
depend,0.14101183,-0.953189,-1.803065,Noise
peer,-1.7214315,0.2954569,-2.4214206,Noise
possess,-0.9793769,-0.047506154,-0.24519199,Cluster1
coupl,-1.1928058,-1.0151608,-1.3363004,Cluster1
sensori,-0.7392879,-1.7728909,-1.9865975,Noise
actor,-0.20699388,-0.4014273,-2.1479702,Noise
otherwis,-1.6482577,-0.52376795,-0.3112877,Cluster1
feel,-0.77557665,-1.3041036,-0.32564658,Cluster1
homo,-0.8735675,-1.0948604,-1.9468584,Cluster2
quantifi,0.1530543,-0.9956573,-1.703193,Noise
vari,-0.47518763,-0.6125676,-1.0349947,Cluster1
aggrav,-0.859444,-0.10730219,-0.84626824,Cluster1
enough,-1.3251565,-1.4992487,-0.04257971,Noise
social,-0.64930993,-0.37456644,-1.6499741,Cluster1
mark,-1.5979024,0.83415747,-0.39933303,Noise
devic,-1.5555251,-0.1614433,-0.9998789,Cluster1
configur,-0.33049166,-0.4479587,-0.8381278,Cluster1
perfect,-0.4329145,2.1492205,-1.7346063,Noise
mammilian,0.7116227,-0.6484022,-1.2422565,Noise
unseen,-0.67202556,-0.37570208,0.3419361,Cluster1
repertoir,-0.7461088,-2.557043,-1.1588097,Noise
oneself,-0.65295756,-0.57264435,-0.22996968,Cluster1
word,-1.4909009,-2.0566878,-1.0049652,Noise
game,-0.43617964,-1.2921,-0.5590186,Cluster1
affect,-1.1105148,-1.6032639,-1.0120023,Cluster1
beauti,-2.040605,-1.2833096,-0.47355753,Noise
life,-1.2390432,-0.6783849,-0.54082334,Cluster1
quit,0.28911483,-0.29555067,1.8171684,Noise
exploit,-0.32777536,-1.738607,-1.7796873,Noise
event,0.0048870444,-0.9952742,-0.7097634,Cluster1
aid,-0.041755795,-0.27366298,0.4568938,Noise
pinpoint,-0.3106214,-1.0076929,-1.5604408,Cluster1
react,-2.1124218,0.08882767,-0.68236464,Noise
support,-0.3249437,-1.2578242,-0.2899019,Cluster1
resolv,0.2447772,-1.3849728,-2.031126,Noise
bio,-0.26929682,-0.74016464,-1.6135578,Cluster1
process,-0.6373546,-0.442926,-1.1794736,Cluster1
hierarchi,-0.29057267,-0.4824144,-1.2842693,Cluster1
endow,-0.78117895,-0.73819894,-2.1917849,Cluster1
idea,-1.1959615,-0.56927437,-1.5884435,Cluster1
extent,-2.4481359,-1.6686578,-0.49474594,Noise
manipul,-0.9147546,-0.41634485,-0.27197194,Cluster1
unobtain,-0.40474328,-0.40908238,-1.5329043,Cluster1
algorithm,-1.7034738,-0.39744383,0.21729487,Noise
high,-1.504875,-0.29395923,-0.9360903,Cluster1
upon,-0.55466765,-2.1734772,-0.097637475,Cluster1
issu,0.16033107,-1.7815671,-0.4554223,Noise
knowledg,-1.0588363,-0.61155355,-0.8190992,Cluster1
peopl,-1.1296911,-0.56405044,-0.84791064,Cluster1
spirit,-1.4379734,-0.3820839,-1.3819923,Cluster1
right,-1.4337797,-1.6785264,-0.7790521,Cluster1
howev,-1.0948758,-1.4091871,-1.4423839,Cluster1
pattern,-0.80759203,-0.69637114,-0.56510943,Cluster1
simpl,-1.5633216,-1.4016759,-1.5145705,Noise
iq,-1.0755441,-1.286966,-0.9492447,Cluster1
avoid,-0.6016086,-1.5616751,0.7274631,Noise
though,-1.1126564,-0.020017743,-1.838077,Noise
complex,-0.33535817,-0.33290002,-1.1108958,Cluster1
simpli,-1.7167394,-0.1923917,-1.5059478,Noise
foremost,-0.9041919,-0.75005615,-0.92782485,Cluster1
synthesi,-0.70720476,-2.531413,-0.4129514,Noise
beyond,-0.5216272,-0.13292086,0.06587249,Cluster1
locat,-0.35000637,-0.5343207,-1.3699576,Cluster1
place,-0.60784954,-0.65922034,-0.9196298,Cluster1
allow,-0.6529305,-0.91181535,-0.28074878,Cluster1
bare,-0.30044982,-0.14803213,-1.3338194,Cluster1
membership,-0.11187869,-0.60657954,-0.7844584,Cluster1
want,-1.6654094,-0.22524744,-0.5440469,Cluster1
agent,-0.8600855,-1.2931478,-3.3451352,Noise
resourc,-1.2901804,-0.68076164,-0.57165456,Cluster1
materi,-0.13795477,-1.6380694,-1.020219,Noise
communic,-0.7405103,-1.4277862,-0.97533315,Cluster1
preced,-0.7300204,-0.7471811,0.027994752,Cluster1
address,-1.6731682,-0.748197,-1.7502031,Noise
puzzl,-0.88148457,-2.213578,-0.7850893,Noise
reli,-0.7678474,-0.083304286,-0.27439004,Cluster1
recurr,-0.5082196,0.23483992,-1.4131444,Cluster1
balanc,0.32918894,-0.07049793,0.3905059,Noise
tendenc,-2.5830812,-0.41338187,-0.5874792,Noise
coevolutionari,-1.7892438,-2.3545318,-0.41823778,Noise
aesthet,-0.3078356,0.791191,-2.2200093,Noise
posit,-1.063373,-1.1606338,1.0019324,Noise
horizon,-1.0478654,-0.0028684735,-1.9113463,Noise
profound,-0.6993728,-1.7953353,-0.592691,Cluster1
recognis,0.14592999,-0.73961145,-1.2332505,Cluster1
appreci,-1.0047932,-1.9693815,-2.4596932,Noise
throughout,-1.1025934,-0.21129107,-0.9178935,Cluster1
awar,-0.8506611,-0.5776766,-1.582033,Cluster1
live,-1.6373112,-0.7459105,-1.4668214,Cluster1
probabl,-0.6693933,0.21019465,-0.24574172,Cluster1
appropri,-1.3928082,-1.4168935,-1.6590955,Noise
innov,-0.15053797,-0.31419566,-0.67857254,Cluster1
taken,-0.7690777,-0.9128803,-1.349637,Cluster1
system,-0.73975545,-0.6437084,-0.7366239,Cluster1
heurist,-0.99894506,-0.9520068,-0.94309133,Cluster1
pose,-2.4637213,-0.17093599,0.14542192,Noise
nervous,-0.18379569,-1.0779424,-1.7075526,Cluster1
recollect,-0.7381252,-0.16379577,-0.8438783,Cluster1
thus,-0.024929225,-1.8525599,0.15773118,Noise
pursu,-1.6223342,-0.9022385,-0.7157575,Cluster1
trial,-1.1127533,-1.6654341,-1.3841977,Cluster1
particular,-0.91970104,-1.0014006,-1.6109185,Cluster1
share,-0.43991777,-1.2723387,0.18731558,Cluster1
acquir,-0.4296566,-0.11994052,-2.0066905,Noise
distract,-1.0974832,-2.000118,0.122205496,Noise
open,-0.58975464,-0.8695288,-1.0320058,Cluster1
set,-1.0029649,-0.45840716,-1.0490832,Cluster1
machin,-1.1190963,-0.42718086,-0.442184,Cluster1
scienc,-0.21304893,-0.15918893,-1.472441,Cluster1
identifi,-0.84865075,-0.5079495,0.1770029,Cluster1
cultur,-1.6329415,-0.4657913,0.10934776,Noise
brain,-0.7879614,-0.7970371,-0.1525774,Cluster1
upright,-1.9216607,-0.6056497,-0.110055864,Cluster1
help,-0.69759923,-2.168854,-1.0909451,Noise
manifest,-1.0049287,-1.1969631,-2.0923662,Cluster2
effici,-1.2286747,-0.7031828,-0.50662136,Cluster1
debug,-0.6277389,-1.061377,-0.138116,Cluster1
power,-0.8021851,-0.9412143,-0.32601985,Cluster1
mere,0.69845366,-0.7808231,-2.0128658,Noise
accord,-0.33054024,-1.0573949,-1.1491259,Cluster1
relationship,-0.78626645,-1.5226984,-0.15664548,Cluster1
effect,-1.1271886,-0.33288354,-0.9799405,Cluster1
explan,0.16618288,-1.0537608,-1.3015783,Cluster1
condit,0.41412866,-0.030591369,-1.7413251,Noise
deriv,-1.520545,-0.479556,-0.912945,Cluster1
anticip,-0.029358923,0.6130965,-1.0974816,Noise
illus,-2.0860798,0.95832014,-2.3040147,Noise
new,-0.74223787,-0.5308909,-0.40650442,Cluster1
contextu,-1.3723412,-0.6535757,-0.37563485,Cluster1
tor,-0.96492916,-0.81663024,-0.5803551,Cluster1
late,-2.0525804,-0.3084157,-2.5631707,Noise
immedi,-0.95108926,0.45416367,-0.7210766,Cluster1
architectur,-1.2330434,-1.6006005,-1.0385938,Cluster1
rapid,-0.66093755,-1.3327575,-2.1664255,Cluster2
get,-1.1750872,-0.6691634,-2.0981164,Cluster1
patchwork,-1.5327922,-0.56047916,-2.7074554,Noise
nich,-0.8742414,-2.5166368,-1.5252035,Noise
e,-0.6412547,-0.07152587,-1.1769495,Cluster1
object,-1.4559283,-0.8829489,-0.6034431,Cluster1
driven,-0.26291424,-0.9221339,-1.6279705,Cluster1
selfhood,0.0912953,-0.57712144,-0.10847318,Cluster1
number,-0.37362525,-1.5605855,0.09837836,Cluster1
perform,-1.1032306,-1.1295874,-0.44412306,Cluster1
predat,-0.054376245,-0.77171004,-0.46185696,Cluster1
never,-0.79199827,-1.3164313,-1.1354561,Cluster1
updat,0.029506087,-0.07208544,0.19363075,Noise
determin,-0.6609457,-0.3156531,-2.2339478,Noise
compos,0.07428378,-0.9762203,-0.034308612,Cluster1
scaffold,-1.9358063,-1.0085167,-0.34881198,Cluster1
bodi,-1.6271267,-0.2583505,-1.0002087,Cluster1
meaning,-2.1555943,0.1974901,-0.30607605,Noise
ground,-1.3940964,0.5418587,-2.6192393,Noise
ongo,-0.12766844,-0.5945673,-0.2640471,Cluster1
strict,-1.0222108,-1.0876486,-0.45850253,Cluster1
econom,-1.2201438,1.0129763,0.011180162,Noise
depth,-0.6430291,-1.691392,-1.3911991,Cluster1
domain,-0.94220835,-0.32878938,0.2490145,Cluster1
toward,-0.89089054,-0.78982043,-0.90120816,Cluster1
job,-0.09297359,-0.28705925,-1.0553343,Cluster1
interrel,-1.0236068,-0.086640835,-0.84748733,Cluster1
analysi,-1.6111519,0.24983943,-2.6571474,Noise
maxim,-0.16008502,-0.28260696,-1.0020397,Cluster1
narrat,-1.2787225,-0.16649705,-0.65323585,Cluster1
well,-0.8545517,-0.85977477,0.3036213,Cluster1
adapt,-1.1497089,-0.8470433,-0.64983416,Cluster1
like,-0.14090478,-0.32843935,-0.12272453,Cluster1
notion,-1.10924,-0.6488256,1.3410782,Noise
conflict,-1.7329243,-0.47950712,-2.0840225,Noise
total,-0.90189534,-0.79816216,0.51186585,Noise
tentat,-0.69402546,-1.7731209,0.4868884,Noise
might,-0.4115891,-1.2437968,-0.53890574,Cluster1
privileg,-0.6007395,0.017176569,0.4707166,Noise
correspond,-0.43950012,0.6215248,-1.3804866,Noise
reproduct,-0.4482515,-0.40172958,-0.679232,Cluster1
phrase,0.12784415,-1.0574017,-0.46424797,Cluster1
reflex,-0.90921235,0.19661117,-0.46721825,Cluster1
softwar,-0.2719702,-2.2478337,-1.5075746,Noise
mechan,0.47850597,-0.09363657,-0.17403817,Noise
causal,-0.7932505,-2.6755323,-0.50696754,Noise
expect,0.15028101,-0.0935238,-0.29568213,Noise
eye,0.54505444,-1.0348256,-1.2469709,Noise
special,-1.2773688,-0.9110568,-0.3203172,Cluster1
manag,-1.3794236,-0.7544611,-0.1621697,Cluster1
world,-0.7197615,-0.7816754,-1.322762,Cluster1
communiti,-1.8385478,-1.790121,-0.2852239,Noise
oper,-0.6337341,-0.6211031,-0.24012774,Cluster1
structur,-0.5730417,-0.60199267,-0.37976074,Cluster1
across,-1.7470791,-0.5178355,-0.19598311,Cluster1
direct,-0.15613383,-0.32727998,-1.7500446,Noise
hour,-0.7248136,-1.3058896,-0.07684499,Cluster1
sens,-0.96962696,-0.011930525,-0.66682637,Cluster1
speak,-1.2633283,-0.4241326,-1.4070785,Cluster1
failur,-0.77376306,0.90997374,-0.66946363,Noise
therefor,-1.3479698,-1.3675059,-1.1947874,Noise
finger,-0.9364904,-0.3280487,-0.4449416,Cluster1
last,1.0294781,0.8218051,-3.0711942,Noise
infinit,-0.94062006,0.36521447,-0.5750754,Cluster1
will,-2.2878542,-0.7208043,-0.0945313,Cluster1
survey,0.09009808,-0.33456132,-1.5119605,Noise
ration,-1.2386633,-0.107411444,-0.869633,Cluster1
judgement,-0.52688587,-1.2504641,-1.1112866,Cluster1
human_intellig,-1.2528616,-0.53999877,-0.82195944,Cluster1
wide,-1.1755614,-0.16289091,-0.37286738,Cluster1
reason,-1.3191222,-0.37553078,-0.6865534,Cluster1
noth,-1.1515821,-1.9253745,-1.699652,Noise
detect,-1.0780005,-0.31829897,-1.6542933,Cluster1
conscious,-1.0060416,-1.0989869,-1.0482336,Cluster1
invent,-1.0823975,-0.8032028,-0.6970883,Cluster1
basi,0.5926044,-0.20958847,0.47033072,Noise
everyday,-2.0481749,-0.14985949,-1.719876,Noise
accident,-1.1523747,-1.1534572,-0.10694033,Cluster1
meet,-1.5474267,-0.1462996,0.45914578,Noise
eleph,-1.0707163,0.24111736,-1.548904,Noise
group,-0.6912001,-0.57314,-0.89215213,Cluster1
concert,-0.4021576,-2.1090856,0.32168293,Noise
talk,-1.9375116,-1.6218224,-0.5439407,Noise
autonomi,-1.9801233,-0.7704805,-0.34185284,Cluster1
sapien,-0.43803123,-0.20849031,-2.0675068,Noise
procedur,-2.327829,-1.3783159,-0.6272815,Noise
wider,-0.16622955,-0.668316,-1.1549859,Cluster1
wire,-0.45838574,-0.6281093,-1.1777346,Cluster1
angri,-0.37325427,-0.20875251,-1.3632512,Cluster1
sub,-1.2366102,-0.47324705,-0.292336,Cluster1
platform,0.18650985,-1.8075191,-1.6060922,Noise
show,-0.8510808,-0.789636,-0.27944762,Cluster1
also,-1.2916627,-0.33419,-0.5650861,Cluster1
mental,-1.303866,-0.19867367,-0.5918,Cluster1
respond,-0.8049275,-0.54808015,-0.3618576,Cluster1
yet,-0.75080115,-1.4542695,1.7403475,Noise
seek,-0.8176115,-0.925302,-0.6772245,Cluster1
indirect,-0.86640006,-0.27598888,0.2781881,Cluster1
creativ,-0.77475303,-0.58329284,-1.4891236,Cluster1
emerg,-0.17417985,-1.2557915,-1.3393416,Cluster1
equat,-0.8554004,-1.2195883,-0.7923686,Cluster1
greater,-0.7572543,-1.4293399,-0.35969716,Cluster1
format,-1.2878124,0.004474044,-1.3848372,Cluster1
dimension,-0.8846505,-1.8410463,-0.59755754,Cluster1
environment,-2.206295,-0.5172946,-0.16759491,Noise
deep,-0.5876065,-0.9215224,-1.1276956,Cluster1
explain,-1.4121697,-0.61482227,-0.42705807,Cluster1
rate,-1.4080375,-0.31346843,-2.2216678,Noise
expertis,-0.98560745,-1.2911029,-0.22522253,Cluster1
impli,-0.5301912,-0.69238114,0.48093092,Noise
much,-0.26523292,-0.89968073,-0.63807774,Cluster1
likewis,-0.31446546,0.2965485,-0.1436966,Noise
togeth,-1.1080503,-1.0895663,-0.061997473,Cluster1
requir,-1.4732045,-0.6107891,-0.9200785,Cluster1
evolut,-1.0776402,-0.22242439,-1.2401516,Cluster1
refer,-1.0767455,-1.266855,-1.1018157,Cluster1
preserv,-1.0412238,-0.9887666,-0.4254814,Cluster1
success,-0.9683668,0.38564074,-2.2687197,Noise
protect,-0.8862148,-1.4346838,-0.6940596,Cluster1
gist,-0.7740036,-0.6700676,-0.20789105,Cluster1
goal,-1.2226536,-0.50598,-0.6437102,Cluster1
cost,-1.0016301,-1.135925,0.11185604,Cluster1
repeat,0.15268314,-1.2882218,-1.5639272,Cluster1
consolid,-0.40891805,-0.6320459,-0.36373067,Cluster1
extend,-1.4574827,1.1694769,-0.79427016,Noise
nub,1.0986198,-1.4951328,-1.3112608,Noise
decis,-1.2320234,-0.8560973,-1.728721,Cluster1
hit,0.84696746,-0.931663,-0.72620046,Noise
storytel,-0.5538087,-0.75817615,-0.7648393,Cluster1
real,-1.3063006,-0.9451945,-1.0794984,Cluster1
find,-0.6681655,-0.5527409,-0.83646005,Cluster1
hungri,-1.1579772,0.23203528,-0.2763934,Noise
would,-0.8804481,-1.6275167,-1.2437198,Cluster1
capac,-1.1882293,-0.6981833,-1.2341892,Cluster1
appear,-2.6697936,-1.1141553,-0.068289876,Noise
competit,-1.2740842,-1.9945931,-0.80765235,Cluster1
stupid,-0.90922606,-1.0842059,0.7648734,Noise
memori,-0.61074096,-1.2115725,-0.0046980977,Cluster1
model,-1.195068,-0.92173135,-0.1132285,Cluster1
lifetim,-2.3276463,-0.9884177,1.2044308,Noise
challeng,-1.4871666,0.7673701,-0.5279565,Noise
along,-1.2608594,-1.1511692,-0.95659107,Cluster1
individu,-1.0190661,-0.6340169,-0.5592295,Cluster1
behav,-0.8764276,-1.4814577,-0.98017484,Cluster1
consequ,-1.4417001,0.39982724,-1.8886663,Noise
deduct,-0.22681868,-0.012580156,-1.1187496,Cluster1
interact,-0.6926891,-1.2647266,-0.7800421,Cluster1
criteria,-1.3939943,0.27735376,0.92482615,Noise
speci,-0.9948153,-1.003931,-0.9520059,Cluster1
strength,-1.4128036,-1.0816064,-0.2724235,Cluster1
dictat,-0.66167754,-2.1424623,-0.8457973,Noise
figur,-0.7269474,-0.25858492,-1.1567256,Cluster1
multitud,-0.16429746,-0.3747591,-1.8178741,Noise
thing,-0.7125322,-0.26331586,-0.78843004,Cluster1
littl,-1.1472514,-1.0199456,1.0202595,Noise
us,-0.38410193,-1.8414081,1.2337116,Noise
potenti,-0.92345196,-1.2392633,-0.71503234,Cluster1
exform,-1.1826047,0.21260142,-1.219379,Cluster1
valu,-2.1745007,-0.827932,-0.94140697,Noise
thumb,-0.44981617,-1.0924537,-1.6378449,Cluster1
deal,-1.5894327,-0.15352672,-1.9407046,Noise
among,0.42539203,-0.49753836,0.37456918,Noise
independ,-1.8675631,-0.07636249,-0.27250433,Cluster1
problem,-0.8864749,-1.2034156,-1.2419665,Cluster1
make,-0.87750185,-0.85037017,-1.1411327,Cluster1
inner,-0.773529,-1.2919927,-0.028349161,Cluster1
abil,-1.1918269,-0.5609091,-1.1580042,Cluster1
strong,-2.1046412,-0.6965667,0.70051384,Noise
imagin,-0.80728275,0.013786137,-0.12037051,Cluster1
reaction,-1.2157162,-0.34348205,-0.6373702,Cluster1
state,-0.5110241,-0.7092641,-1.7306001,Cluster1
root,-1.8893443,-0.59274185,-0.2605067,Cluster1
characteris,-0.47796625,-0.047226965,-1.7727906,Noise
conclus,0.1905545,-0.53337264,-0.38940582,Cluster1
anim,-1.4154387,-0.45359477,-1.4027365,Cluster1
descript,-0.87160087,-1.7545924,-0.3010791,Cluster1
multipl,-0.7864462,-0.8906247,-1.4047482,Cluster1
symbiosi,-0.8388853,-0.52626765,-1.1063304,Cluster1
elabor,-1.4692295,-0.3810994,0.253842,Noise
rear,-0.9754199,-0.5757432,-0.81875885,Cluster1
autonom,-1.6192865,-2.0804217,-0.680632,Noise
contradict,-1.8717875,-0.2919762,0.16462183,Noise
properti,-0.8230153,-0.7737893,-0.8615841,Cluster1
famili,-0.09295994,0.22390878,0.24998689,Noise
small,-0.5780769,-1.4648063,-1.0754256,Cluster1
give,0.06800389,-0.95796925,-1.1746488,Cluster1
solut,-1.5689275,0.22748137,-1.0163001,Cluster1
two,-0.6010101,-0.14297253,0.10185021,Cluster1
may,-0.8900242,-1.3733377,-0.5135449,Cluster1
physic,-0.68053204,-0.61118424,-0.6040001,Cluster1
specif,-1.0160984,-1.4787675,-1.0436258,Cluster1
instanti,0.32154322,-0.34345248,-0.8019741,Cluster1
involv,-1.4655664,-1.0111551,-0.101614416,Cluster1
relev,-0.20834655,-0.6911969,-0.47444665,Cluster1
home,0.07879895,-0.550752,-0.20178074,Cluster1
scale,-0.82255155,-0.3982474,-1.6767066,Cluster1
oppos,-0.9542218,-0.5836551,-1.6117784,Cluster1
mani,-0.81888884,-1.6188738,-1.1588207,Cluster1
univers,0.21240997,-0.25609374,0.86314476,Noise
recess,-1.5894117,-0.5419358,-0.60366106,Cluster1
plant,-0.18122941,-0.76771,-1.0364132,Cluster1
mention,-0.7494212,-0.39751136,-0.20453006,Cluster1
limit,-1.0050957,-0.9664569,-1.0857079,Cluster1
surround,-0.77889514,-0.6526067,-1.706768,Cluster1
phenomenon,-0.16135919,-0.8301726,-0.15895379,Cluster1
outcom,-1.423982,0.1057325,-0.8695109,Cluster1
motiv,-0.9026295,-2.0826454,-0.67631704,Cluster1
ego,-0.8738845,-0.9853144,-0.5392891,Cluster1
deviat,-1.8054938,-0.91247195,0.5341486,Noise
unknown,-0.44443575,-1.537554,-0.6432092,Cluster1
featur,-1.2568014,0.04983902,-0.50740504,Cluster1
surviv,-0.94704515,-0.7918043,-0.8517879,Cluster1
desir,-0.36238003,-0.08067083,-0.2898456,Cluster1
rationalis,-0.90001476,-0.31215522,-1.8702328,Cluster1
succeed,-1.3431579,-0.8461786,-1.8120427,Noise
human,-1.0043483,-0.44614542,-0.85826784,Cluster1
hear,-0.9375919,-1.2943413,-2.188431,Cluster2
current,-0.33784565,0.47282934,-1.9894042,Noise
creation,-0.91393816,0.10960221,-0.61205417,Cluster1
incorpor,-0.7178304,1.3222934,-0.95950127,Noise
mathemat,-0.81854177,-1.7059331,-0.72120684,Cluster1
appli,-0.65082514,-0.936462,-1.0878706,Cluster1
quantiti,-0.651536,-1.3723574,-1.5692791,Cluster1
due,0.34249663,-0.33907986,-0.36103734,Noise
extran,0.20568264,-1.475234,0.40612292,Noise
teacher,-1.9564718,-0.0015794635,-1.6967711,Noise
employ,-0.43837368,-0.42227772,-0.14975005,Cluster1
admir,-0.40196642,-1.3622535,-1.6503103,Cluster1
ratio,-1.3914852,-0.8674992,-0.5623064,Cluster1
disconnect,0.35227633,-1.1653302,0.047692776,Noise
qualit,-0.5296221,-1.8155564,-1.0633073,Cluster1
tri,-0.9491409,-0.54945654,-1.1479354,Cluster1
law,-1.2828357,-0.70802796,-0.49689984,Cluster1
virtu,-0.28308454,-0.16758615,-0.450181,Cluster1
environ,-0.8891537,-0.78509825,-0.52786314,Cluster1
first,-1.7123955,-0.35909602,-1.286083,Cluster1
composit,-2.3450851,-1.23102,-0.67518455,Noise
predict,-1.1827172,-0.5984429,-0.9519604,Cluster1
emot,-1.2431273,-1.2751882,-0.5633686,Cluster1
drive,0.49408138,-0.19371587,0.045679092,Noise
devis,-1.0389761,-0.13384026,-1.2887473,Cluster1
choos,-1.0864366,-2.244667,-1.3757873,Noise
constrain,-1.2478797,-1.0295925,-0.8245518,Cluster1
item,-0.6726354,-1.1170605,0.03999877,Cluster1
amort,-1.1784846,0.8148978,-1.246392,Noise
import,-1.0573373,-1.0267216,-0.7947191,Cluster1
develop,-1.1394144,0.10756624,-0.96065354,Cluster1
differ,-0.78891873,-1.0218964,-0.12823462,Cluster1
chunk,-0.7819624,-0.17896831,-1.8268458,Cluster1
de,-0.6988864,-0.75892407,-0.9643918,Cluster1
combin,0.0065252185,-1.2121736,-0.98629344,Cluster1
categori,-0.2586236,-0.32523003,-0.33933115,Cluster1
far,-0.52324164,-0.27495444,-0.87057936,Cluster1
fabric,-1.7001299,-0.075309634,-2.5523517,Noise
produc,-2.667035,-0.21652848,-0.6347277,Noise
guid,-1.6626775,0.47935617,-1.448911,Noise
reliabl,-0.591927,0.7207782,-1.2059728,Noise
impress,-2.2581148,-0.5940614,-0.12109107,Cluster1
alloc,-1.7718885,-0.9793667,-0.66106373,Cluster1
societi,-0.57861334,-0.12917608,-1.198889,Cluster1
happen,-0.68844414,0.378425,-1.1125861,Cluster1
way,-0.816976,-0.5428932,-0.83533955,Cluster1
under,0.24011958,-0.3353918,-0.8175119,Cluster1
achiev,-1.316436,-1.1871517,-0.7887524,Cluster1
uncertainti,-0.73036087,-0.31514853,-0.5591935,Cluster1
least,-1.4189246,-1.520488,-1.2245202,Cluster1
reinforc,-1.1334689,-0.7257862,-1.2580061,Cluster1
orient,-2.0108442,-1.2311202,-0.5564489,Noise
enabl,-1.7479386,0.032987177,-1.1827885,Cluster1
ill,-0.9754443,-0.6246979,-0.6241321,Cluster1
terminolog,0.87970793,0.32592022,-1.0971568,Noise
novo,-0.79429895,-0.84224534,-1.7389908,Cluster1
constraint,-1.8422774,-1.5164742,-0.90251213,Noise
optimum,0.52850866,-1.1043372,-0.7775799,Noise
account,-1.3322635,-1.754569,-0.8190312,Cluster1
mind,-0.4712822,-0.6646237,-1.1931113,Cluster1
expetis,-0.31281045,-1.901663,-1.8310424,Noise
run,-0.4269991,-1.0924757,-1.0510719,Cluster1
link,-0.31058484,-0.22908407,-0.7455352,Cluster1
sum,0.22890472,-0.46916386,-0.93922514,Cluster1
walk,-1.4179229,-0.59519327,-0.7980488,Cluster1
see,-1.3567069,-0.6887176,0.2355839,Noise
mean,-0.7586136,-0.86760324,-0.32183054,Cluster1
method,-1.6816742,-0.2128616,-0.4337553,Cluster1
practic,-0.01761818,0.14103645,-0.21539932,Noise
without,-0.5213648,-1.1359777,-1.4476413,Cluster1
essenti,-1.0051844,-1.2470118,-0.63531524,Cluster1
varieti,-1.0421517,-0.41817805,-0.17034149,Cluster1
execut,-0.5433818,-0.6931623,0.13344109,Cluster1
norretrand,-0.7258398,0.11413324,-1.2555305,Cluster1
societ,-0.26740307,-0.029696465,-2.0419307,Noise
necessarili,-0.24502355,-0.37551486,-0.5576275,Cluster1
intent,-1.027086,-0.06371987,-1.2167767,Cluster1
meta,-0.853763,-0.19797236,-1.2662752,Cluster1
maximis,-2.236071,0.31072712,-1.7784144,Noise
synthesis,-0.92549175,0.34850514,0.6324842,Noise
approach,-0.37293223,-1.0861356,-2.2669525,Noise
abl,-1.123601,-0.66061926,-1.237495,Cluster1
often,-0.6942659,-0.33446056,-0.42430222,Cluster1
divers,-1.0039016,-0.5638467,-1.0232775,Cluster1
input,-1.0300001,-2.0148842,-1.1802094,Noise
studi,-1.1960689,-0.6788414,-2.2411957,Noise
induct,-1.1776298,-0.6169585,-0.36175466,Cluster1
display,-2.5154192,-0.8951946,-0.79371876,Noise
space,-1.3263483,0.03977114,-0.768585,Cluster1
data,-0.8528447,-1.0871264,-1.078151,Cluster1
held,-1.5387871,-0.8516697,-0.98615044,Cluster1
undistinguish,0.033035636,-0.79161656,-0.16204143,Cluster1
sure,-0.7903105,-0.1451562,-0.117280066,Cluster1
constant,-1.9607623,-1.5618756,-1.8655695,Noise
etc,-0.8511096,-0.7634443,-0.71423,Cluster1
contain,0.5852519,-1.3410637,-0.778264,Noise
overal,-1.7136232,0.020688772,-0.9211805,Cluster1
swift,-0.7461489,0.5695846,0.37944186,Noise
heritag,-1.2986135,-1.3130934,-0.3502373,Cluster1
belief,-0.98320395,-0.7786777,-1.9238868,Cluster1
control,-1.016811,-1.279355,0.6714926,Noise
array,-1.6902071,-0.22934973,1.1634059,Noise
perhap,-0.19304025,-2.0544043,-0.3850698,Noise
consist,-1.4967449,0.25834954,0.17101103,Noise
synthet,-0.07547122,-0.38761944,0.28495574,Noise
context,-0.95192075,-0.6811498,-0.7794355,Cluster1
improv,0.007344663,-1.0370723,-1.0237852,Cluster1
slight,-0.15311486,-0.62557924,-0.9781485,Cluster1
film,-2.5145745,-1.4061936,0.9836278,Noise
around,0.17829376,-1.4495829,-1.1829543,Noise
progress,-0.75397915,-1.4800732,-1.3957989,Cluster1
read,-0.61559147,-0.9723432,-1.3495414,Cluster1
futur,-0.7933798,-0.9148097,-0.28057033,Cluster1
store,-0.5961165,-0.264421,-2.7450604,Noise
take,-0.7344015,-1.7695594,-1.1250279,Cluster1
reach,-1.6340714,-0.43353307,-0.22945291,Cluster1
relat,-1.1031308,-0.9706402,-0.98462653,Cluster1
work,-0.6084024,-0.65079975,-0.39136598,Cluster1
aka,0.27479506,-1.1699953,0.29004824,Noise
crux,0.40464127,-1.809342,0.6562799,Noise
common,-0.39730763,-0.8167614,-1.0795003,Cluster1
art,-0.58616614,0.06494868,-0.01739186,Cluster1
generat,-1.5176373,-0.50915146,-0.72482485,Cluster1
desicion,-0.6016876,-1.1462084,0.8742366,Noise
intern,-0.43400007,-1.8216243,-0.31263646,Cluster1
incomplet,-0.2706828,-0.5263983,-0.79669046,Cluster1
gather,-1.5574496,-0.58376783,-2.000807,Noise
development,-0.62247133,-0.1595226,-0.66319036,Cluster1
opportun,-2.1409497,-2.8181634,-1.1009091,Noise
test,-0.77193767,-1.0271393,-2.158315,Cluster2
extrem,-0.3949727,1.0826705,-1.3776731,Noise
team,-0.54867005,-0.37955955,0.24381113,Cluster1
better,0.045226574,-1.1175838,-1.4101315,Cluster1
physiolog,0.07948661,-0.43337855,-1.2764319,Cluster1
recurs,-0.7408758,-0.72607577,-0.40231904,Cluster1
even,-1.7422917,-0.53288,-1.9296536,Noise
dimens,-0.5101685,-0.8946353,-0.76992416,Cluster1
care,-0.8592497,-0.7385475,-1.9767731,Cluster1
subsystem,-1.1846942,-0.45706075,-1.405025,Cluster1
principl,-2.0213857,-3.4394736,0.058389306,Noise
infer,-0.14691335,-1.7932395,-0.23413616,Cluster1
ecosystem,-0.63293225,-0.7267953,-1.1352456,Cluster1
obtain,-1.6880069,-2.1200294,-0.6305224,Noise
level,-1.37854,-0.5775147,-1.072207,Cluster1
carri,-0.6926491,-1.3528423,-0.35426903,Cluster1
locomot,0.47499514,-1.6093669,-0.30294296,Noise
intellectu,-2.0403438,-0.7746018,-0.1165303,Cluster1
charg,-0.96227366,-1.8376328,-0.27290565,Noise
standard,-1.1873459,-0.2219423,-0.14999014,Cluster1
analogu,-1.5316262,-1.5481077,-0.7561841,Cluster1
sometim,-0.086535215,-0.9927699,0.59520507,Noise
concret,-1.8467784,-1.1964749,0.084991574,Noise
linguist,-1.4967544,-1.322614,-0.81649,Cluster1
function,-0.92462885,-0.106859565,-1.5565102,Cluster1
construct,-1.456502,-0.09447199,-1.1911005,Cluster1
isol,-1.7028716,-1.2071683,-0.3734394,Cluster1
use,-0.89457065,-0.6167575,-0.7231796,Cluster1
definit,-0.836657,0.15169674,-0.91272473,Cluster1
plan,-0.9842075,-1.3743131,-0.6245533,Cluster1
call,-1.7206575,-1.1214314,-0.8545712,Cluster1
represent,-0.6460904,-0.8444068,-0.68163717,Cluster1
reflect,-1.0933542,-2.0900383,-0.43982238,Noise
higher,-1.0730429,0.004368961,-0.87974745,Cluster1
maintain,-0.66207826,-0.5972124,-0.95614266,Cluster1
less,-1.2808328,-0.26997375,-1.1269627,Cluster1
innat,-0.8200405,-1.0164597,0.034266233,Cluster1
entiti,-1.620507,1.5428511,0.12778789,Noise
judgment,-0.45794293,-0.5584824,-0.71746784,Cluster1
reveal,-1.3076394,0.17558694,-0.8684511,Cluster1
larger,-1.8281327,0.9768965,-1.315823,Noise
embodi,-1.1651896,-0.64328,-0.3061193,Cluster1
time,-0.7475166,-0.76321006,-1.3793705,Cluster1
charact,-1.185715,-1.841498,0.4343387,Noise
alway,-0.90432674,0.36640263,-2.0965447,Noise
percept,-0.90423536,-0.9158927,-1.2946582,Cluster1
e_g,-0.35487238,-0.7813427,-0.9699248,Cluster1
magnet,-0.8518381,-0.9733604,-0.9188044,Cluster1
util,-1.8434535,-1.359231,-1.478493,Noise
coevolv,-1.0973842,-0.24715608,-2.5048294,Noise
stem,-1.3896197,0.16337013,-0.5401793,Cluster1
tire,-0.7375796,-0.7699408,-0.4127305,Cluster1
instinct,0.70919955,0.4544704,-1.0330344,Noise
arguabl,-0.5017352,-1.570344,-2.5069551,Noise
respons,-0.62518275,0.32580042,-1.843443,Noise
learn,-1.3094451,-0.49299324,-0.82975996,Cluster1
end,-0.63797003,0.1235823,-1.6028368,Cluster1
suitcas,-0.74273753,-0.29435596,-0.9668504,Cluster1
uniqu,0.0059073567,-0.5806728,-1.2804763,Cluster1
bull,-0.38301462,-3.3179226,-1.019433,Noise
insight,-0.7852121,-0.67987406,-0.7921734,Cluster1
sound,0.13033229,-0.8540496,-1.3819244,Cluster1
exercis,-0.73099613,-0.8117644,-0.6688666,Cluster1
think,-1.3091226,-0.6457333,-0.7083644,Cluster1
select,-1.8746375,-0.95059913,-0.8768463,Noise
region,-1.844487,-1.4744806,-1.3452265,Noise
signal,-0.4460574,1.27435,-0.36537322,Noise
say,0.10407764,-1.5922445,-0.005083382,Noise
month,-0.39004362,0.66115355,-0.68408465,Noise
crucial,-0.6540884,-0.7673748,-1.1405439,Cluster1
quick,-0.545927,-0.7479082,0.37788248,Noise
intrus,-1.0924325,-0.13432795,0.28148866,Cluster1
comput,-1.0270574,-0.33074316,-0.168064,Cluster1
intellig,-1.1184564,-0.29470697,-0.7607132,Cluster1
evolutionari,-0.6836517,-0.92159826,-1.0007008,Cluster1
popularis,-0.9693323,-1.2179605,0.19092,Cluster1
signific,-1.6602998,-0.3902223,-0.8691752,Cluster1
receiv,-1.1254348,-0.40864888,-0.70676476,Cluster1
differenti,-1.3433616,-0.2623167,1.4161974,Noise
quantit,-0.521767,-1.1131892,0.39455736,Noise
acceler,-2.040505,-0.3069301,-1.2884098,Noise
cover,0.045271397,-1.3591924,-1.5143392,Cluster1
natur,-0.053342104,-0.7429452,-0.48759484,Cluster1
come,-1.5061643,1.3658911,-1.5083055,Noise
anoth,-1.2917869,-1.2832077,0.103181064,Cluster1
someth,-1.6642355,-2.3563876,-0.58698356,Noise
math,-0.4516967,-0.62789935,-0.90354913,Cluster1
daili,-0.6089621,-0.31330606,-1.3231,Cluster1
basic,-1.5004961,-0.91115206,-1.3635347,Cluster1
path,-1.1230266,-0.28590932,-2.2580671,Noise
juggl,-1.2495623,-1.8858888,0.68803954,Noise
experiment,-0.2578441,-1.7448521,-0.69490075,Noise
clever,-1.8306865,0.46840668,-2.8475108,Noise
realiti,-0.82763416,-0.21922123,-0.25580496,Cluster1
insuffici,-1.4048684,-0.37006664,-1.2954085,Cluster1
exhibit,-2.3338118,-0.79241216,-1.2444636,Noise
compar,-1.6401095,-2.1573825,0.37617457,Noise
attent,-0.09937066,-0.994654,-0.822822,Cluster1
mix,-0.10854924,-1.175773,-0.8717042,Cluster1
respect,-0.6001211,0.44008148,-0.74315894,Noise
enhanc,-0.5450792,-0.7517859,-1.0375379,Cluster1
inform,-1.0424526,-0.7156554,-0.6462149,Cluster1
aspect,0.49635684,0.009102643,-0.81589,Cluster1
imprecis,-1.2310996,0.43809927,-0.014837325,Noise
concept,-0.4062406,-1.0840853,-1.4889367,Cluster1
whatev,-0.89416194,-1.0300937,0.42019045,Cluster1
clear,-0.8742829,-0.77599937,-0.5785513,Cluster1
extern,-0.39453694,0.2635244,-1.6305671,Cluster1
singl,-1.0935649,0.2391653,-0.93723905,Cluster1
purpos,-0.5852426,-1.4075627,-0.20251948,Cluster1
best,-1.5000415,-1.4915638,-0.4390423,Cluster1
creator,-2.8497596,-0.9978833,-0.18613714,Noise
situat,-0.81561595,-0.26327688,-0.3747192,Cluster1
previous,-1.133973,-0.7018099,-0.17422605,Cluster1
evolv,-1.4229983,-0.80125403,-0.4867135,Cluster1
scheme,0.44022393,-1.6488894,-1.0918009,Noise
perceiv,-0.89087635,-1.3131493,-1.3539472,Cluster1
understand,-1.373944,-0.64438665,-1.2614374,Cluster1
modal,-2.000837,-0.15350449,-1.0331663,Noise
logic,-0.98093235,-0.51700974,-1.3499458,Cluster1
freedom,-0.662127,-1.7708669,-1.1245183,Cluster1
type,-0.6927708,-0.7259867,-0.39453188,Cluster1
comprehend,-2.0065928,-0.72738683,0.01967442,Cluster1
flexibl,-0.2543699,-0.8908045,-1.1455731,Cluster1
host,-1.7768288,-0.021470785,-0.7890603,Cluster1
creatur,-0.80360603,-1.4420888,-0.83017683,Cluster1
thought,-1.9194613,-0.09931332,0.09061861,Noise
