word,x,y,z,cluster
spot,0.055251986,-0.43939757,0.7662287,Cluster1
necessari,1.3779999,-0.29952925,-0.118581414,Noise
aggreg,0.5556927,0.55587983,0.43031773,Cluster2
part,0.64669424,2.955226,1.621943,Noise
chang,0.05149743,0.86306834,0.564053,Cluster2
general,1.8067209,0.41182244,0.23600313,Noise
task,-0.040066183,0.75673497,0.81724054,Cluster2
form,1.7203072,0.6776527,0.488851,Noise
essenc,0.20357358,-0.7124114,1.9917406,Noise
action,0.529224,0.3349899,0.58378714,Cluster2
automat,-0.32424837,0.7379236,-0.37852114,Noise
innumer,0.28945458,0.012430251,-0.38076746,Cluster3
behavior,0.92039376,1.231052,0.60285556,Cluster2
artifici_intellig,0.53288305,1.5849406,0.3006639,Noise
appar,2.4729042,0.463969,-1.3334491,Noise
base,0.2540292,-0.32897478,0.09316668,Noise
act,-0.10153383,1.0526426,0.8050966,Cluster2
provid,1.6098017,0.5319085,0.37357694,Noise
smart,1.3038903,0.6318131,-0.9370253,Noise
rang,-0.3267063,0.776254,1.4333348,Noise
entir,0.45929366,0.9386661,0.3788858,Cluster2
capabl,0.8142165,1.0062845,0.63822764,Cluster2
goe,-0.29630244,0.17539975,-0.42117333,Noise
interpret,-0.031696916,0.62711996,0.3898474,Cluster2
prior,1.0830561,0.15104777,0.9615215,Noise
favorit,1.7153778,1.6600358,-0.08437085,Noise
franci,-1.9155225,0.7534998,1.5306828,Noise
rather,0.69788957,0.37504694,-0.19764334,Cluster2
degre,1.1288745,1.183858,0.95940655,Cluster2
serv,1.2422369,0.75711894,0.52809125,Cluster4
measur,1.3205252,1.256572,1.3325536,Noise
prefer,2.0516129,0.8562175,0.51633084,Noise
creat,1.6107708,0.7782466,0.013345182,Noise
theori,0.8220892,0.46957412,0.38594294,Cluster2
unbias,0.04286179,0.39294395,0.7892693,Cluster2
shape,0.167377,0.72009885,0.79792637,Cluster2
includ,0.6339789,0.62954724,0.980071,Cluster2
avail,-0.8552815,-0.0148025155,1.5625025,Noise
exampl,-0.8773614,0.46624333,0.05488938,Noise
certain,0.009810418,0.5209196,0.45676258,Cluster2
fact,1.0643787,-0.43011975,-0.15719837,Noise
neither,0.1686438,0.4475295,0.8456706,Cluster2
compet,-0.28979045,1.033109,1.0420462,Cluster2
defin,-0.24774528,2.0352094,0.38451087,Noise
past,0.37497324,-0.030453801,0.5318964,Noise
unexpect,-0.16214436,-0.25717163,0.346397,Cluster1
term,0.43906528,0.9617682,0.9221852,Cluster2
thrive,0.37852615,1.190289,1.0567198,Cluster2
deeper,0.79249185,1.3239669,-0.6640154,Noise
consid,0.28223455,0.07567051,0.6059897,Cluster2
possibl,0.43444434,1.0686255,0.18755728,Cluster2
could,0.6309141,0.21837065,0.11784062,Cluster2
abstract,0.2043801,0.246187,1.1942804,Cluster2
circumst,0.3601886,0.68423265,1.3084583,Cluster2
affair,0.41424406,0.9577577,1.1884427,Cluster2
normal,0.7813592,1.5358282,-0.09562945,Noise
highest,0.8838508,0.1331369,-0.02982682,Cluster2
capit,-0.7900162,-0.8440002,-0.40087557,Noise
activ,1.193002,-0.7221265,0.8096521,Noise
guidanc,0.09676388,-0.37266082,0.53616464,Cluster1
fashion,-0.3017649,0.38598475,1.2505955,Cluster2
solv,0.9294158,1.1117592,0.23812878,Cluster2
optim,0.24217674,1.1575798,0.8821207,Cluster2
need,-0.2985075,1.4559784,0.8378004,Noise
known,-0.20727855,0.7236913,0.2519105,Cluster2
narrow,0.2615408,0.44808745,-0.92915285,Noise
given,-0.1848427,0.86111856,1.0095177,Cluster2
broad,-0.28048366,1.5252911,1.376667,Noise
one,-0.15328842,-0.1570279,0.712079,Cluster1
skill,0.86883867,1.2975519,-0.37480158,Cluster6
devot,0.48085892,-0.14397877,0.17259169,Cluster2
entail,0.60041875,0.18009552,1.3248703,Cluster2
analyt,-0.24632627,0.849969,-0.33338213,Noise
sociocultur,0.4251479,-1.0250238,1.0526497,Noise
darwinian,0.33461893,-0.52704644,0.7893497,Cluster1
cognit,0.20911789,0.3202575,0.9533702,Cluster2
strateg,0.6335952,0.40429953,-0.49795508,Cluster2
remain,-0.88414145,0.7173765,0.7618176,Noise
experi,0.06738648,0.8592855,-0.90695524,Noise
qualiti,0.012164563,1.435705,1.6679386,Noise
foresight,0.656547,1.5055397,-0.6111789,Noise
concern,2.0889754,-0.25353926,0.8822297,Noise
increas,-0.0998767,-0.32374948,0.43908462,Cluster1
techniqu,-0.24731445,0.08782232,0.26234388,Noise
retain,0.19316629,0.8237871,1.1041963,Cluster2
commensur,-0.13734871,-0.767681,0.09008053,Noise
contribut,0.37605637,1.9056566,1.2986603,Noise
catch,0.37194484,-0.11481929,-0.12712753,Cluster3
machin_intellig,0.26980978,0.1875388,1.0316285,Cluster2
strategi,0.1891692,0.18042502,1.3231814,Cluster2
broader,0.69082415,1.0029436,-0.79547393,Noise
order,-0.2770126,1.2311866,0.35785955,Cluster5
phenomena,0.27697808,0.12265396,-0.020809412,Cluster3
organ,-0.7229377,0.31579378,0.58294725,Noise
ought,1.2017787,-1.8012365,0.19738951,Noise
full,0.6207473,0.26998028,1.3104081,Cluster2
unitari,-0.5879551,0.14697501,0.783831,Noise
whole,0.70892376,0.98185825,0.40365186,Cluster2
self,2.567706,0.039348066,0.070954084,Noise
ultim,0.0219149,0.6659653,0.9794964,Cluster2
possess,1.6207002,0.70397484,0.20508465,Noise
vari,-0.19108504,0.14815846,1.7361292,Noise
finit,-0.10239899,0.17551541,0.7036017,Cluster2
social,0.055206448,0.37445328,1.1432683,Cluster2
mark,1.5846887,-0.054229915,0.5854844,Noise
repertoir,-0.33262062,1.5632576,0.13719526,Noise
main,1.1469159,0.4285129,0.75572085,Cluster4
status,1.8270569,0.1258528,0.9221922,Noise
character,0.3208843,1.4107459,1.0740168,Cluster2
life,0.6401293,0.07223955,1.08887,Cluster2
event,-0.65862703,0.26579708,-1.2318263,Noise
view,1.4006642,0.558635,0.7495632,Cluster4
process,-0.35111517,-0.27120638,1.189273,Cluster1
retriev,-0.52377105,0.90651953,1.5828924,Noise
idea,-0.5014188,-0.97488594,-0.755126,Noise
algorithm,0.44831792,0.7484511,-0.6219466,Noise
arous,0.434774,0.25006002,0.9776682,Cluster2
knowledg,0.22016934,0.3294329,-1.0340782,Noise
peopl,0.62127423,-1.0692725,0.28720522,Noise
product,0.61155754,0.37454724,0.3214583,Cluster2
weak,-0.2070145,0.79282045,-0.12355417,Noise
though,0.22132346,1.6021473,0.4402197,Noise
complex,0.1567032,0.020600945,0.9934008,Cluster2
conceiv,0.13896209,1.4194716,-0.8072382,Noise
agent,0.9791256,1.317638,0.7897761,Cluster2
resourc,0.2334775,0.89607507,0.63789225,Cluster2
reli,0.69985765,0.066197395,1.0569894,Cluster2
tendenc,1.7754183,0.28962713,-0.030337572,Noise
supplement,1.20813,0.6910328,0.3724373,Noise
still,0.38422808,0.57529956,0.25349063,Cluster2
hold,-0.064098954,-1.1009967,1.5906603,Noise
appropri,0.705452,0.9242455,0.3482471,Cluster2
chart,0.71684146,-0.34601218,1.3396009,Noise
build,0.7777848,1.4633756,0.765634,Cluster2
ai,-0.37034708,1.1053267,0.35470584,Cluster5
system,0.54880655,1.5266378,0.141945,Noise
thus,1.2039478,1.4103715,0.7318032,Cluster2
pursu,0.7190199,1.5435145,0.6813079,Cluster2
truth,0.09741002,-0.48939723,-0.45224434,Noise
particular,-0.33749187,0.67151684,0.8166812,Cluster2
correct,-0.8707241,0.6334864,0.9389312,Noise
acquir,0.78422356,1.9126854,-0.7973571,Noise
open,-0.27356428,0.15113273,1.0576838,Cluster2
machin,0.11665675,1.0343192,-0.7195878,Noise
set,0.77303654,0.8990566,0.497408,Cluster2
scienc,0.90722805,1.8572476,0.04837814,Noise
cultur,0.7640661,-0.13723677,-0.54222524,Noise
brain,-0.5052457,0.9839798,0.5988748,Cluster5
help,0.18468791,0.7719513,1.0281582,Cluster2
book,-0.37642992,1.59592,-0.7352003,Noise
effici,0.8419529,0.022732854,1.0481892,Cluster2
health,1.2958145,-0.75746894,0.7991049,Noise
mere,0.31443194,2.1412835,-1.9204773,Noise
accord,0.7676056,1.0660253,0.7689524,Cluster2
relationship,2.492218,1.1762105,-0.04717934,Noise
effect,0.86749303,0.91604114,-0.03460151,Cluster6
global,0.5686482,0.36234456,1.4150163,Cluster2
parsimoni,-0.6074815,0.32990322,0.12377876,Noise
anticip,1.0002952,-0.25325,0.7211165,Noise
insofar,1.5161077,0.090013444,-0.5868664,Noise
architectur,1.6213086,-0.31197113,-0.65219295,Noise
foundat,-0.36847514,0.33255804,0.55243546,Cluster2
object,0.9534606,-0.5322552,0.4919578,Noise
driven,-0.8316698,1.4062037,0.38959283,Noise
perform,0.50697523,1.652755,0.86668456,Noise
pragmat,1.8240465,-0.20153624,1.269145,Noise
compos,1.290174,-0.37915313,0.14548123,Noise
econom,1.2012186,0.5840285,-0.41639483,Noise
discoveri,0.16990036,-0.44087225,0.4498566,Cluster1
domain,0.43977153,0.08206549,0.9815763,Cluster2
simultan,-0.30750585,-0.31944644,0.32043278,Cluster1
adapt,0.09795204,0.8409802,0.8809407,Cluster2
like,0.9773465,0.08557972,0.4563205,Cluster2
notion,0.562423,0.7584645,-1.6621784,Noise
offer,0.86003804,0.38865647,-0.19780278,Cluster2
total,0.47692952,-0.22476578,1.8181024,Noise
alon,-0.20744503,0.07777244,1.0505273,Cluster2
associ,0.7328951,0.44984385,1.1817847,Cluster2
expect,0.2238006,0.04512024,-0.6916909,Noise
special,-0.15494084,1.8823098,-0.15495837,Noise
functionalist,0.31263208,-0.24056512,-0.7332258,Noise
world,0.81967294,1.6412308,0.5183135,Cluster2
across,-0.16862518,0.51628375,1.6331687,Noise
direct,-1.0409702,-0.23968261,-0.63225675,Noise
sens,-0.14945114,-0.27187192,0.16454044,Cluster1
diver,1.252336,0.062139183,1.0199112,Noise
therefor,-0.7639524,0.29199463,-0.043307602,Noise
back,-0.33755976,1.0061938,-1.185037,Noise
ration,0.816979,0.517651,0.25036618,Cluster2
human_intellig,0.2802921,-1.0643595,-0.3050751,Noise
wide,-0.85554266,1.0871286,1.7588694,Noise
approxim,0.5114171,-0.6061146,-0.18899602,Noise
reason,1.3253834,0.5187715,0.680323,Cluster4
compens,-0.031256497,0.56504923,0.101120204,Cluster2
meet,-0.13501549,0.52689177,0.84008616,Cluster2
group,2.056254,-1.2398959,0.3151815,Noise
respond,-0.31411606,0.4154759,1.6178795,Noise
mental,0.8856969,0.448666,1.1859193,Cluster2
creativ,2.6500578,0.1882756,0.048064083,Noise
emerg,-1.0779757,0.81411016,-0.24887735,Noise
permit,0.9413372,1.3525205,0.39599285,Cluster2
return,0.22273347,-0.16701198,0.13780892,Noise
requir,0.79314065,-0.14342457,0.77201915,Noise
refer,-0.24359488,-0.41711158,0.77249205,Cluster1
success,-0.1420728,0.50419074,1.1695437,Cluster2
neglect,0.28219187,2.049334,0.18878499,Noise
goal,-0.15876114,0.84700316,1.2391644,Cluster2
cost,0.30034444,1.5945238,0.54053646,Noise
repeat,-0.37174398,-0.28815985,0.9042411,Cluster1
decis,0.35108706,-0.46892816,-0.27443594,Noise
real,1.1039925,-1.2753924,1.4662201,Noise
find,0.15895066,1.1197834,2.0391307,Noise
would,1.0023973,0.9146507,-0.70990574,Noise
capac,0.687889,0.5227764,0.85719645,Cluster2
memori,-0.08220971,0.16840148,0.8159853,Cluster2
challeng,-0.0699715,0.27936462,1.183017,Cluster2
individu,0.69142115,1.3080211,0.54763675,Cluster2
behav,0.698622,0.2875492,0.15249625,Cluster2
enter,-0.38289952,-0.7362448,0.8023227,Noise
consequ,-0.09387016,0.2901802,0.704989,Cluster2
strength,-0.25328368,-1.0424392,0.3787486,Noise
multitud,0.9741871,-0.0020080805,-0.7940413,Noise
figur,1.07673,0.046892315,0.59078103,Noise
thing,-0.44754672,-0.06811863,1.2477965,Noise
fulfil,0.1032539,1.6354362,1.7773896,Noise
deal,0.2613359,-0.4551069,0.90869015,Cluster1
among,0.93524516,-0.27146673,0.92454886,Noise
independ,0.4878004,-0.017305851,-0.17031807,Cluster3
problem,-0.14035106,0.21745178,1.1514008,Cluster2
make,0.93956757,-0.18032604,0.29967162,Noise
abil,0.59416145,0.6249693,0.6062355,Cluster2
galton,0.44059962,0.27287507,-0.8318275,Noise
multipl,-0.024259448,1.445956,-0.68655145,Noise
servic,1.0012525,-1.0968032,0.5765115,Noise
properti,-0.5733861,0.4989,-0.5977018,Noise
two,0.63968545,0.5704302,0.20486572,Cluster2
physic,-0.018470705,0.2886477,0.5971341,Cluster2
involv,1.3090057,0.96497846,0.16904244,Noise
relev,1.0325396,1.3558643,-1.4472811,Noise
cross,0.22732809,0.5053205,1.1925606,Cluster2
surround,0.009048611,0.48930866,0.35354593,Cluster2
outcom,1.006849,0.6432781,0.72866833,Cluster4
human,0.37455827,0.9045503,0.73443794,Cluster2
evid,1.4946291,1.0913081,0.3773326,Noise
histor,-0.5470822,-0.41467118,-0.50523734,Noise
qualit,0.9232167,0.11547756,-0.033744812,Cluster2
forth,0.54320747,0.5650332,1.4039932,Cluster2
law,1.0680686,-1.1355177,-0.18758076,Noise
period,-0.7847109,0.2063207,1.5813154,Noise
environ,0.19720754,0.066758156,1.0680093,Cluster2
mode,-0.13052815,0.15325883,0.5544787,Cluster2
subtyp,0.05734113,0.7819473,0.42054498,Cluster2
manifold,0.7375771,-1.1626252,-0.07904452,Noise
import,0.6353957,1.1641412,1.0689416,Cluster2
develop,0.24090385,0.2184723,1.0358458,Cluster2
differ,1.2788581,1.1807919,-0.80490875,Noise
interconnect,-0.6314267,-0.6248523,-0.019065917,Noise
combin,0.026497364,-0.078365564,0.3123141,Cluster1
consider,-0.0943346,1.2425764,-0.017915845,Noise
lead,0.23705769,1.2857511,1.1210685,Cluster2
detail,-0.81171954,0.18328163,-0.07143754,Noise
union,0.46118993,1.2937713,0.1902121,Noise
design,0.9124727,-0.21102399,-1.202814,Noise
way,0.07017052,0.03816241,-0.71304476,Noise
perceptu,1.046221,0.6814714,1.2983854,Noise
achiev,0.4966975,0.70474553,1.7409251,Noise
old,0.47585395,-0.9501082,0.07506934,Noise
autom,-0.22599083,1.1523654,0.7686745,Cluster5
enabl,0.7658111,0.863381,1.0859667,Noise
account,-0.9745412,1.2905785,1.1025547,Noise
mind,0.79303455,0.29798728,0.7005952,Cluster2
sum,0.68243545,0.90452564,1.2430644,Cluster2
demand,-0.41495323,1.982512,0.272807,Noise
see,0.66281927,0.4806088,1.3069079,Cluster2
method,-0.32479072,0.058787704,1.0008518,Cluster2
mean,0.6806355,0.15510929,0.70193017,Cluster2
practic,0.802678,0.41273177,0.47461396,Cluster2
essenti,1.3020673,0.5455923,0.23887563,Noise
clean,0.13727096,0.7079994,1.2885118,Cluster2
varieti,-0.13975358,-0.4216199,1.0730894,Cluster1
execut,1.883581,1.2336366,0.5154667,Noise
abl,0.82699764,0.41486964,-0.035304964,Cluster2
ideal,1.7275081,1.2903981,0.54845876,Noise
studi,0.436255,0.48990577,0.25814772,Cluster2
space,0.5606942,0.8015622,0.72005737,Cluster2
code,-0.4201995,0.54318035,1.0744057,Cluster2
central,1.0128835,0.5290135,1.5494767,Noise
cours,-0.337627,2.2327821,0.9228968,Noise
belief,0.8137773,-0.68956184,1.1117557,Noise
repres,-0.004290223,-0.8407289,0.24701625,Noise
context,-1.1906453,0.5288268,0.9454591,Noise
take,0.39159226,0.8120645,0.27851498,Cluster2
relat,0.9738318,-0.32584506,0.74791366,Noise
distribut,1.3454486,-0.060002446,1.0136471,Noise
match,-0.19534975,0.055642456,0.35039312,Cluster2
work,-0.3534798,1.0899796,0.56770504,Cluster5
common,1.6260177,-0.3504312,0.26808536,Noise
amount,1.1161447,0.4139287,0.55543965,Cluster2
generat,0.30498713,1.0956781,0.82210493,Cluster2
coher,-1.182737,1.0704186,-0.22324938,Noise
intern,-0.12636316,2.1619573,-0.22687322,Noise
test,1.1841655,1.018555,-0.15047222,Cluster6
principl,0.96095604,1.4798857,0.6230611,Cluster2
level,0.7992029,1.8729162,1.4938624,Noise
intellectu,-0.14486331,0.4736205,0.29666296,Cluster2
function,0.056892604,0.22740373,0.5065199,Cluster2
use,0.2944494,-0.04594338,0.4744078,Noise
definit,0.20039752,0.46703884,0.5884302,Cluster2
plan,0.8618896,0.25410312,0.5278748,Cluster2
represent,1.1675394,0.9677485,-0.2172476,Cluster6
reflect,0.06357205,0.70263714,-0.1046142,Cluster2
higher,1.6765529,-0.053861737,0.7608571,Noise
less,0.104658216,0.7460993,0.42631876,Cluster2
entiti,0.91555834,1.0693115,-0.1888147,Cluster6
time,-2.058395,-1.1191078,2.4178057,Noise
percept,1.6434278,-0.16828781,-0.19080001,Noise
e_g,0.7068534,0.02915731,0.13354331,Cluster2
util,0.4951069,0.35185128,0.46395147,Cluster2
govern,0.46520582,-0.43764937,0.77947295,Cluster1
respons,-0.6971164,1.3922197,0.11158562,Noise
learn,0.36240837,0.39303166,-0.2799244,Noise
think,0.9382602,0.50005794,0.33443663,Cluster2
select,0.70331466,0.70349777,0.44553426,Cluster2
say,0.8138785,0.47177708,-0.28769845,Cluster2
sort,0.34215018,0.056931645,-0.37241066,Cluster3
quick,1.0466424,1.761874,-1.3322228,Noise
comput,0.6374222,0.69164973,0.5249509,Cluster2
intellig,1.1640553,0.652304,0.024252385,Noise
convers,0.41743523,-1.5245041,-0.6390816,Noise
differenti,0.3795467,0.65991354,0.21606699,Cluster2
academ,-0.3119033,1.7603668,-0.13280445,Noise
natur,0.5561236,-0.6021501,1.0521891,Cluster1
unrel,0.6471833,0.48376063,-0.3651895,Cluster2
basic,1.5716956,-1.048694,1.1032474,Noise
insuffici,-0.0406847,0.8978772,1.2142451,Cluster2
exhibit,0.3578751,1.3173418,1.1082917,Cluster2
attent,-0.18124408,-0.50642073,0.87462825,Cluster1
enhanc,1.1429987,0.22049433,1.4466743,Noise
inform,-0.24886596,-0.30701488,0.8847605,Cluster1
concept,0.5003088,-0.44368637,0.8879648,Cluster1
clear,2.018674,0.6106804,0.6877046,Noise
singl,0.65628415,0.5241605,-0.4523825,Cluster2
purpos,-0.028496027,0.8144127,0.63975704,Cluster2
cluster,-0.4185223,1.1476513,1.8528167,Noise
best,1.617504,0.9552932,0.5123643,Noise
situat,0.74484116,0.19683972,-0.03667593,Cluster2
perceiv,0.5463303,-0.29569376,-0.0634402,Cluster3
type,1.9780678,1.0858086,-1.5299994,Noise
comprehend,0.20622763,-0.53081894,0.57736963,Cluster1
element,0.2979399,-0.18601394,0.9965023,Cluster1
thought,0.95594835,0.43190262,0.23267448,Cluster2
