word,x,y,cluster
search,-0.27604467,1.8261046,Cluster1
realis,0.56758296,1.6151084,Cluster1
necessari,1.1607308,-0.7156003,Cluster1
calcul,1.4921353,0.92131805,Cluster1
initi,1.5594056,2.0805333,Noise
chang,1.6849427,0.74121505,Cluster1
part,2.0138428,0.62182015,Cluster1
general,1.5096455,0.45443636,Cluster1
overt,0.5534428,1.1711354,Cluster1
becom,1.3843613,1.7887006,Cluster1
task,0.69253564,-0.67556304,Cluster1
form,0.6670806,0.5849099,Cluster1
action,1.2229643,0.9310358,Cluster1
languag,1.0641614,-1.226697,Cluster1
attempt,0.41702414,-0.37717837,Cluster1
either,1.2899356,1.0232146,Cluster1
behavior,0.8368908,0.6094437,Cluster1
interest,-0.24003029,0.13936192,Cluster1
lack,-0.15721327,0.084652066,Cluster1
speed,2.4307587,0.9274189,Noise
base,-0.3850556,-0.36340743,Cluster1
act,1.5402402,0.7285942,Cluster1
error,-0.3268273,1.2700866,Cluster1
rang,1.255911,0.89036095,Cluster1
capabl,0.48048747,-0.1630975,Cluster1
actress,-0.07337314,3.2204733,Noise
unfinish,0.618682,-0.105772614,Cluster1
priori,-0.8781685,0.98603797,Noise
good,0.33346692,1.4086266,Cluster1
beforehand,0.75863546,0.5976398,Cluster1
rather,0.7060346,-0.7130347,Cluster1
degre,0.5916471,-0.8014141,Cluster1
measur,1.3030488,-0.38203758,Cluster1
creat,0.6671777,0.78940165,Cluster1
prefer,1.1514916,0.24280167,Cluster1
includ,1.2710326,0.6832718,Cluster1
avail,1.0608457,-0.057979524,Cluster1
psychometr,0.6353043,-0.29241782,Cluster1
obstacl,0.8165359,0.15298724,Cluster1
certain,1.34289,-0.013224721,Cluster1
fact,1.017415,-1.0102866,Cluster1
rule,0.79656947,-0.6907945,Cluster1
sustain,1.7426736,1.3202474,Cluster1
moral,0.5673433,-1.1297722,Cluster1
complet,0.83724654,0.37939134,Cluster1
defin,1.5354624,0.82619417,Cluster1
indefin,0.62457937,-0.9300819,Cluster1
behaviour,0.3397372,0.5148561,Cluster1
term,0.9141438,-0.4150768,Cluster1
thrive,1.8536506,1.0889838,Cluster1
facil,0.7835856,-0.02266866,Cluster1
discrimin,0.9214115,2.1387558,Noise
consid,0.62531143,0.6991182,Cluster1
brought,0.23177525,-0.55072623,Cluster1
abstract,1.3052933,-0.61942524,Cluster1
circumst,0.66587305,0.40281162,Cluster1
analog,0.84214056,-0.79279476,Cluster1
activ,0.5474323,-0.16792399,Cluster1
everyth,0.6925235,0.43297654,Cluster1
adequ,0.9106468,1.599935,Cluster1
solv,1.9220088,1.4386466,Cluster1
subgoal,1.1756706,1.4373891,Cluster1
optim,0.78446144,-0.41294104,Cluster1
known,-0.34785664,0.18325424,Cluster1
within,-0.12094027,0.0911898,Cluster1
one,0.9455936,0.7152704,Cluster1
skill,1.2863643,0.10550749,Cluster1
given,0.7756429,0.28007555,Cluster1
broad,1.1466465,0.47889003,Cluster1
various,0.6396327,0.12635231,Cluster1
sociocultur,0.7576893,0.17823398,Cluster1
cognit,1.345829,0.22387534,Cluster1
proper,1.2692263,-0.26793897,Cluster1
experi,1.4289266,-0.23273307,Cluster1
factor,0.9731915,0.53010774,Cluster1
qualiti,2.1066175,0.4817416,Cluster1
experienc,-0.9802888,1.495358,Noise
hard,1.944443,1.1006272,Cluster1
c,1.3480257,0.84747785,Cluster1
increas,1.2019072,0.6735333,Cluster1
b,1.6227946,-0.1231994,Cluster1
earlier,0.26063934,1.0325869,Cluster1
engag,0.94987464,-0.9227013,Cluster1
player,0.4054817,1.7511771,Cluster1
occur,0.9966742,-0.18071306,Cluster1
other,0.26779535,-0.0053822994,Cluster1
order,1.4874768,2.401739,Noise
complic,1.7497513,0.7020689,Cluster1
organ,1.4955069,1.2739778,Cluster1
symbol,1.220418,0.4959241,Cluster1
full,1.0727248,0.2984007,Cluster1
unitari,1.371974,0.67260885,Cluster1
result,1.5057487,0.09192878,Cluster1
self,1.5362864,0.23683044,Cluster1
artifici,2.043998,0.17342886,Cluster1
ultim,0.9027665,1.5178065,Cluster1
possess,1.3242016,0.014300466,Cluster1
sensori,2.5452132,0.64202034,Noise
otherwis,0.21449429,2.465355,Noise
kind,0.7144353,-0.107843876,Cluster1
vari,0.879372,1.2012194,Cluster1
social,-0.24161541,0.03518617,Cluster1
finit,1.042103,1.424629,Cluster1
utmost,0.8492326,0.58481455,Cluster1
oneself,1.3129582,1.3041408,Cluster1
proport,1.2752328,0.264321,Cluster1
accommod,0.2676322,0.9157119,Cluster1
educ,2.321333,0.3734692,Cluster1
character,0.67296207,-0.4847589,Cluster1
life,1.0157825,1.2556659,Cluster1
uncertain,1.5847063,0.30498815,Cluster1
view,0.2821411,1.3821824,Cluster1
support,0.768799,1.2042985,Cluster1
framework,0.23984486,-0.3261959,Cluster1
process,1.3916249,-0.13725024,Cluster1
retriev,1.2765032,0.3842086,Cluster1
idea,1.6326857,-1.3783619,Noise
almost,1.904727,0.7608339,Cluster1
extent,1.2164778,0.060710013,Cluster1
aptitud,1.1622925,0.083681166,Cluster1
manipul,1.584408,-0.18099034,Cluster1
high,1.3714194,0.2708119,Cluster1
seem,1.2207644,-0.28498816,Cluster1
knowledg,1.4623623,0.09735435,Cluster1
peopl,0.65030944,-0.83273095,Cluster1
howev,0.37753832,-0.08950609,Cluster1
schemata,0.83530766,0.10418731,Cluster1
product,0.32732555,1.0710042,Cluster1
grade,-0.67885023,0.36387375,Noise
pattern,0.7872529,-0.59051067,Cluster1
complex,1.2955579,-0.81842715,Cluster1
resist,-1.916744,0.81285304,Noise
allow,0.55017203,0.74159473,Cluster1
content,-0.18501699,1.7587643,Cluster1
want,1.0027181,0.97345054,Cluster1
span,0.81973344,1.5879351,Cluster1
agent,1.5788202,-0.30247396,Cluster1
resourc,1.2614639,0.40510908,Cluster1
doubt,0.4413129,0.7010862,Cluster1
trait,1.6248012,1.2707559,Cluster1
influenc,0.97256315,0.87636495,Cluster1
opinion,0.31140924,0.13575053,Cluster1
light,0.97165406,0.94002056,Cluster1
assimil,1.0593238,0.383814,Cluster1
awar,-0.35539114,-1.1671925,Noise
probabl,0.77531946,0.11733121,Cluster1
appropri,1.3629327,1.0686597,Cluster1
advantag,0.5866307,0.019495726,Cluster1
system,1.4401691,0.54653114,Cluster1
man,0.7886832,0.4740311,Cluster1
similar,1.3490157,-0.6279481,Cluster1
truth,0.87524337,-1.2709136,Cluster1
particular,0.09828758,0.706357,Cluster1
trial,0.23131269,1.0114111,Cluster1
acquir,1.5977678,0.34632298,Cluster1
attain,0.7787762,2.520782,Noise
machin,-0.1527986,-0.10745555,Cluster1
set,1.4689875,-0.40778655,Cluster1
cultur,0.73828316,0.3656137,Cluster1
brain,0.4237244,0.75828433,Cluster1
manifest,1.3466146,0.56499726,Cluster1
power,1.5734967,1.2933547,Cluster1
facet,1.2334614,0.2343843,Cluster1
stage,1.1557751,1.345633,Cluster1
relationship,1.3122036,-0.5910236,Cluster1
effect,1.1956267,-0.18662852,Cluster1
global,1.3439865,-0.334426,Cluster1
condit,0.3720966,0.5945708,Cluster1
new,1.3105519,0.43528426,Cluster1
insofar,2.0343482,-0.3925076,Noise
anyth,1.2579674,-0.04927957,Cluster1
rapid,0.5317812,1.2885042,Cluster1
get,1.1940657,1.618871,Cluster1
adapted,0.7375372,-0.9060336,Cluster1
e,1.3203614,0.9686072,Cluster1
object,0.40357065,-0.15734911,Cluster1
perform,1.1633265,0.39977705,Cluster1
never,0.28575057,2.2157686,Noise
profit,1.4098296,-1.6012375,Noise
child,0.77685606,0.20500016,Cluster1
domain,1.1508615,-0.068635106,Cluster1
toward,1.5770516,0.6509364,Cluster1
interrel,0.038103163,0.8452229,Cluster1
immens,-0.2502194,1.0180033,Cluster1
maxim,1.1802189,0.96028304,Cluster1
adapt,1.5465977,0.6824372,Cluster1
well,0.18091345,-0.5710897,Cluster1
like,0.2342222,0.8559866,Cluster1
dim,-0.105308354,1.6292362,Cluster1
total,1.9657099,1.0067029,Cluster1
might,-0.35319418,0.061050296,Cluster1
unifi,1.0060632,1.1956689,Cluster1
present,0.6103814,0.035880387,Cluster1
express,0.27426988,0.6848453,Cluster1
mechan,1.1380615,-0.056464255,Cluster1
associ,0.79348534,1.5930886,Cluster1
origin,0.86514634,0.340827,Cluster1
expect,1.6915479,0.016350925,Cluster1
world,0.7362145,-0.064348936,Cluster1
oper,0.32698262,0.23675454,Cluster1
structur,1.3877838,0.32342637,Cluster1
direct,0.56247854,-0.09845364,Cluster1
sens,0.5247912,1.633178,Cluster1
therefor,1.8108532,0.3314209,Cluster1
choic,1.1624852,-0.34748363,Cluster1
ration,1.1616001,0.7149304,Cluster1
judgement,0.7874801,1.1843747,Cluster1
wide,1.6336603,1.01361,Cluster1
substrat,1.7081921,-0.35234565,Cluster1
biolog,1.2023797,-0.10526317,Cluster1
reason,1.332123,-0.23366344,Cluster1
zeal,1.2589147,0.9868459,Cluster1
practis,2.257008,-0.067159235,Cluster1
meet,1.4897997,0.75342244,Cluster1
industri,0.82775915,0.5064571,Cluster1
show,1.1309167,1.0035532,Cluster1
mental,1.2391555,-0.26322424,Cluster1
also,0.5500229,1.0319997,Cluster1
emerg,0.022846699,-1.1993091,Noise
empir,1.4183756,0.26752338,Cluster1
format,0.8398917,1.375513,Cluster1
togeth,0.8564466,-0.21324152,Cluster1
requir,1.1086272,-0.38068002,Cluster1
refer,0.6148303,-0.30163175,Cluster1
success,1.4134095,1.1153116,Cluster1
goal,1.1920097,0.33719867,Cluster1
basketbal,0.33757114,1.4042653,Cluster1
real,1.140955,0.7626629,Cluster1
find,0.84972316,0.99034226,Cluster1
assemblag,0.3018163,0.46456575,Cluster1
encompass,0.08499634,-0.2893616,Cluster1
capac,1.2588917,0.09771502,Cluster1
appear,0.58896834,1.5168152,Cluster1
memori,1.0503161,0.12873864,Cluster1
sensat,1.4537473,1.178143,Cluster1
individu,1.0927248,-0.55390924,Cluster1
enter,1.6203241,-0.06375986,Cluster1
criteria,0.82255393,-0.80989045,Cluster1
concentr,0.16224554,2.1878912,Noise
thing,1.2792376,0.12765038,Cluster1
us,1.1490779,1.2405903,Cluster1
economi,0.72540486,0.11968684,Cluster1
valu,0.5251023,0.3421266,Cluster1
agi,1.6059234,0.7308639,Cluster1
deal,1.524605,-0.3914426,Cluster1
among,0.66064084,0.81114036,Cluster1
independ,0.43427777,-0.46117884,Cluster1
problem,1.5955904,0.86663276,Cluster1
musician,-0.30677593,1.5670131,Cluster1
make,1.0470326,-0.59723264,Cluster1
abil,1.5504164,-0.470532,Cluster1
imagin,0.38732398,-0.08604354,Cluster1
focal,-0.34982347,1.335488,Cluster1
anim,0.03602332,-0.8413301,Noise
complexli,0.53370917,1.2417651,Cluster1
autonom,0.58809704,0.5410173,Cluster1
properti,1.3559947,-0.4180706,Cluster1
solut,-0.31361127,1.3555892,Cluster1
specif,1.199233,0.22049788,Cluster1
involv,1.2141206,-0.6531516,Cluster1
energi,0.13848472,0.10015625,Cluster1
relev,-1.9944897,-0.11900914,Noise
inhibitori,1.3660569,-0.09044832,Cluster1
neuroanatomi,1.0202543,-0.057745814,Cluster1
mani,0.33226588,-0.59908086,Cluster1
grasp,0.719265,-0.64497167,Cluster1
limit,0.49267414,0.023776114,Cluster1
surviv,1.1894498,1.4561695,Cluster1
human,-0.90519315,-0.31928402,Noise
thereof,1.186086,0.47302842,Cluster1
incorpor,-0.023501635,1.0658886,Cluster1
appli,1.9231646,-0.1502176,Cluster1
emphasi,1.965852,0.31208622,Cluster1
observ,-0.42653912,1.0222056,Cluster1
tri,1.6130188,1.1831837,Cluster1
forth,1.0280892,0.74605095,Cluster1
environ,1.2113254,0.47163445,Cluster1
composit,1.078574,-0.27245998,Cluster1
emot,0.12147689,0.50157887,Cluster1
separ,0.85169834,0.87730116,Cluster1
import,0.77990484,0.44147223,Cluster1
develop,-1.3639066,0.3022808,Noise
differ,1.0118833,-0.42977947,Cluster1
combin,0.89090806,-0.32152247,Cluster1
henc,-0.36847228,-0.19006246,Cluster1
faculti,1.0356016,0.4310682,Cluster1
lead,1.421952,0.020734668,Cluster1
produc,0.26380563,1.0781045,Cluster1
stimuli,0.6842993,0.8066437,Cluster1
classifi,1.1542835,-0.4091006,Cluster1
cannot,1.6195127,0.17790025,Cluster1
accur,-0.6687713,-1.3712323,Noise
somewhat,0.4318461,0.25116715,Cluster1
design,0.23668289,-0.1688087,Cluster1
perceptu,0.8549306,0.39358443,Cluster1
adjust,1.1803831,0.5348549,Cluster1
under,1.3871771,0.09627378,Cluster1
achiev,1.5016047,0.8263473,Cluster1
least,0.74539936,-0.056971014,Cluster1
enabl,0.775018,0.6810082,Cluster1
fundament,-0.017881513,-0.1930604,Cluster1
said,1.8583586,1.3481736,Cluster1
mind,1.5606587,-0.18275422,Cluster1
run,1.1698173,-0.007114947,Cluster1
denot,1.0825132,0.35103625,Cluster1
demand,0.99361247,0.40390533,Cluster1
mean,1.0207899,-0.8126264,Cluster1
practic,-0.07314438,1.2610161,Cluster1
person,1.5495794,0.13281041,Cluster1
essenti,0.836626,-0.33611566,Cluster1
fluentli,0.76162493,-0.15419841,Cluster1
disord,1.2932138,-0.4598648,Cluster1
unsatisfactori,1.1621269,-0.7267465,Cluster1
space,0.31259516,1.455559,Cluster1
data,1.614403,1.4639825,Cluster1
inhibit,1.5354134,-0.15886438,Cluster1
constant,0.4892161,0.60497,Cluster1
etc,1.4811482,1.5343158,Cluster1
difficulti,0.28961885,-0.24034017,Cluster1
context,1.2401434,1.095374,Cluster1
improv,1.3053671,-0.07640904,Cluster1
school,0.13195097,0.4636146,Cluster1
take,1.2017763,1.0189228,Cluster1
store,1.499518,0.14836228,Cluster1
relat,1.0540652,0.80098295,Cluster1
work,0.8829782,0.75267446,Cluster1
modifi,1.1256766,0.10685313,Cluster1
generat,0.66072047,1.726409,Cluster1
intern,1.8738136,0.55019903,Cluster1
test,0.98824483,-0.73829097,Cluster1
extrem,0.6684238,0.78640103,Cluster1
better,1.6657515,0.48308885,Cluster1
physiolog,1.1760585,0.34030133,Cluster1
even,0.9029871,0.5614897,Cluster1
alter,0.6780508,0.088290334,Cluster1
earli,0.9286038,1.2136581,Cluster1
principl,1.5890806,-0.41626662,Cluster1
level,0.90294075,0.28780824,Cluster1
carri,2.2942,0.13444918,Cluster1
intellectu,0.58290213,0.9425246,Cluster1
conceptu,1.0546633,-0.59831685,Cluster1
pure,0.6067381,1.7100267,Cluster1
concret,0.45362216,0.6956737,Cluster1
function,0.7155005,-0.58003885,Cluster1
sever,0.23988187,-0.39483625,Cluster1
predefin,0.72022223,-0.30630243,Cluster1
especi,1.1579328,-0.6164897,Cluster1
use,1.5593796,-0.19934058,Cluster1
lowest,2.4625196,-0.11071473,Cluster1
overcom,0.5415296,0.72195613,Cluster1
definit,0.2636333,-0.53615516,Cluster1
plan,2.1879327,0.94406605,Cluster1
call,-0.36231643,1.0678673,Cluster1
interfac,1.1710918,0.3931254,Cluster1
maintain,0.6592372,-0.40138656,Cluster1
judgment,1.0047002,0.17194739,Cluster1
reveal,-0.5049543,-0.3200155,Cluster1
time,1.1259995,0.867718,Cluster1
percept,0.1964041,-0.2020486,Cluster1
shall,1.0133326,-0.20527786,Cluster1
instinct,0.7907188,0.8997836,Cluster1
respons,1.5686398,1.1589546,Cluster1
undertak,1.3676713,-0.3101853,Cluster1
learn,1.7394056,-0.48252267,Cluster1
end,1.2044196,1.1795605,Cluster1
latter,0.88022745,0.011138618,Cluster1
exercis,1.247477,-0.36213082,Cluster1
think,1.4522407,-0.4366272,Cluster1
say,0.7485895,1.3738427,Cluster1
novel,1.9768648,0.45723206,Cluster1
quick,0.83755064,-0.7084238,Cluster1
impuls,1.6534815,1.8877683,Noise
intellig,1.2144102,-0.108478665,Cluster1
comput,1.6166879,0.17622775,Cluster1
anoth,0.9817954,-0.548124,Cluster1
insuffici,1.5307285,1.1703218,Cluster1
compar,0.029139102,0.86690575,Cluster1
psychologist,-0.79701596,0.74956053,Noise
advanc,0.3223107,0.59715253,Cluster1
attent,0.79665774,0.30599046,Cluster1
inform,1.4327846,-0.17346829,Cluster1
aspect,-0.31463844,0.5495697,Noise
concept,1.1614902,-0.27009988,Cluster1
whatev,1.4831922,0.8634536,Cluster1
extern,1.4631727,0.4430881,Cluster1
singl,1.8318055,-0.7506673,Cluster1
redefin,1.1648797,0.866838,Cluster1
purpos,1.6046872,1.0496405,Cluster1
cluster,1.678102,1.1109072,Cluster1
recognit,1.3186562,-0.5330308,Cluster1
reorgan,0.81142205,0.5640972,Cluster1
situat,1.5318555,1.0319666,Cluster1
previous,0.2727632,-0.02458936,Cluster1
alert,0.4736145,-0.2110604,Cluster1
second,0.17374495,1.1051387,Cluster1
perceiv,0.73145074,-0.5523738,Cluster1
understand,1.6001425,-0.68207747,Cluster1
forc,-1.1726658,0.6328686,Noise
type,0.23963845,0.19069225,Cluster1
comprehend,1.9308014,-0.8629256,Noise
flexibl,1.1038381,0.8619463,Cluster1
element,0.8608261,1.9872246,Noise
thought,-0.24244952,0.5083449,Noise
